<?xml version="1.0" standalone="no"?>
<!DOCTYPE svg PUBLIC "-//W3C//DTD SVG 1.1//EN" "http://www.w3.org/Graphics/SVG/1.1/DTD/svg11.dtd" >
<svg xmlns="http://www.w3.org/2000/svg" xmlns:xlink="http://www.w3.org/1999/xlink" version="1.1">
<metadata>
Created by FontForge 20161003 at Tue Jun  6 05:30:06 2017
 By www-data
Copyright (c) 1988, 1990 Adobe Systems Incorporated.  All Rights Reserved.Helvetica is a registered trademark of Linotype AG and/or its subsidiaries.
</metadata>
<defs>
<font id="HelveticaNeueThin" horiz-adv-x="556" >
  <font-face 
    font-family="HelveticaNeueThin"
    font-weight="100"
    font-stretch="normal"
    units-per-em="1000"
    panose-1="0 0 0 0 0 0 0 0 0 0"
    ascent="800"
    descent="-200"
    x-height="514"
    cap-height="714"
    bbox="-169 -211 1041 927"
    underline-thickness="50"
    underline-position="-150"
    unicode-range="U+0020-FB02"
  />
<missing-glyph horiz-adv-x="278" 
 />
    <glyph glyph-name=".notdef" horiz-adv-x="278" 
 />
    <glyph glyph-name=".null" horiz-adv-x="0" 
 />
    <glyph glyph-name="nonmarkingreturn" horiz-adv-x="333" 
 />
    <glyph glyph-name="space" unicode=" " horiz-adv-x="278" 
 />
    <glyph glyph-name="exclam" unicode="!" horiz-adv-x="259" 
d="M106 714h48v-241l-12 -290h-24l-12 290v241zM155 0h-51v103h51v-103z" />
    <glyph glyph-name="quotedbl" unicode="&#x22;" horiz-adv-x="315" 
d="M80 485v229h38v-229h-38zM197 485v229h38v-229h-38z" />
    <glyph glyph-name="numbersign" unicode="#" 
d="M414 690h33l-31 -220h110v-33h-115l-24 -173h111v-33h-116l-32 -231h-33l32 231h-169l-32 -231h-33l32 231h-117v33h122l24 173h-118v33h123l31 220h33l-31 -220h169zM209 437l-24 -173h169l24 173h-169z" />
    <glyph glyph-name="dollar" unicode="$" 
d="M290 347v-326q92 0 151.5 40t59.5 122q0 57 -36 93.5t-114 55.5zM258 393v300q-96 -4 -141 -44.5t-45 -107.5q0 -65 37 -94t108 -45zM258 -105v88q-118 10 -182 69.5t-64 182.5h38q0 -95 53 -151.5t155 -62.5v333l-47 11q-38 9 -64.5 19.5t-55 29.5t-43 51t-14.5 76
q0 18 2.5 36.5t15.5 47t35.5 49.5t66.5 38t104 19v49h32v-49q225 -5 232 -220h-38q-6 95 -55 138t-139 45v-310l78 -19q171 -41 171 -182q0 -70 -37.5 -116t-91 -64.5t-120.5 -19.5v-88h-32z" />
    <glyph glyph-name="percent" unicode="%" horiz-adv-x="778" 
d="M138 -24l465 738h40l-465 -738h-40zM572 -12q-74 0 -120 51t-46 126q0 77 45.5 128t121.5 51q77 0 121 -50t44 -129q0 -74 -46 -125.5t-120 -51.5zM571 21q58 0 93.5 43t35.5 101q0 62 -34 104t-94 42t-94 -42.5t-34 -103.5q0 -58 35.5 -101t91.5 -43zM206 346
q-74 0 -120 51t-46 126q0 77 45.5 128t121.5 51q77 0 121 -50t44 -129q0 -74 -46 -125.5t-120 -51.5zM205 379q58 0 93.5 43t35.5 101q0 62 -34 104t-94 42t-94 -42.5t-34 -103.5q0 -58 35.5 -101t91.5 -43z" />
    <glyph glyph-name="ampersand" unicode="&#x26;" horiz-adv-x="593" 
d="M262 412q31 20 46.5 31.5t39.5 34t35 47.5t11 54q0 39 -34.5 64.5t-77.5 25.5t-77.5 -25.5t-34.5 -64.5q0 -31 14 -59t43 -63t35 -45zM433 137l-184 229q-5 -3 -31.5 -20t-35 -23t-30 -22t-30 -27.5t-20.5 -28.5t-16.5 -35.5t-4.5 -39.5q0 -67 52.5 -108t121.5 -41
q34 0 64.5 11.5t50.5 27.5t35 33.5t21.5 29.5t6.5 14zM545 0l-87 106q-33 -55 -86 -86.5t-117 -31.5q-93 0 -152.5 47.5t-59.5 134.5q0 19 3 36.5t12 33.5t14.5 28t21.5 27t22.5 22t28.5 22t27 18.5t30 19t27 17.5q-4 5 -18.5 23t-20.5 25.5t-17.5 23.5t-16.5 26.5t-12 26
t-9.5 30t-2.5 30.5q0 53 46 88t104 35q62 0 106 -33t44 -90q0 -21 -4 -39.5t-14 -35.5t-17.5 -28t-25.5 -26.5t-26 -22t-31.5 -22.5t-29.5 -21l170 -209q24 63 24 119h38q-5 -79 -36 -151l116 -143h-51z" />
    <glyph glyph-name="quotesingle" unicode="'" horiz-adv-x="204" 
d="M83 485v229h38v-229h-38z" />
    <glyph glyph-name="parenleft" unicode="(" horiz-adv-x="241" 
d="M228 -184h-34q-129 212 -129 450q0 243 131 465h35q-128 -217 -128 -465q0 -245 125 -450z" />
    <glyph glyph-name="parenright" unicode=")" horiz-adv-x="241" 
d="M13 731h34q129 -212 129 -450q0 -243 -131 -465h-35q128 217 128 465q0 245 -125 450z" />
    <glyph glyph-name="asterisk" unicode="*" horiz-adv-x="352" 
d="M161 714h29v-130l122 41l10 -28l-123 -41l76 -102l-22 -20l-77 106l-80 -106l-24 20l81 102l-124 41l9 28l123 -41v130z" />
    <glyph glyph-name="plus" unicode="+" horiz-adv-x="600" 
d="M281 271v233h38v-233h233v-38h-233v-233h-38v233h-233v38h233z" />
    <glyph glyph-name="comma" unicode="," horiz-adv-x="278" 
d="M100 -126v33q34 15 34 93h-21v103h51v-103q0 -102 -64 -126z" />
    <glyph glyph-name="hyphen" unicode="-" horiz-adv-x="352" 
d="M283 253h-214v38h214v-38z" />
    <glyph glyph-name="period" unicode="." horiz-adv-x="278" 
d="M164 0h-51v103h51v-103z" />
    <glyph glyph-name="slash" unicode="/" horiz-adv-x="333" 
d="M28 -17h-41l318 748h41z" />
    <glyph glyph-name="zero" unicode="0" 
d="M278 -12q-57 0 -102 21.5t-72 56t-45 82.5t-24.5 96t-6.5 101t6.5 101t24.5 96t45 82.5t72 56t102 21.5t102 -21.5t72 -56t45 -82.5t24.5 -96t6.5 -101t-6.5 -101t-24.5 -96t-45 -82.5t-72 -56t-102 -21.5zM278 21q50 0 88.5 20.5t61 53t37.5 77t20 86t5 87.5t-5 87.5
t-20 86t-37.5 77t-61 53t-88.5 20.5t-88.5 -20.5t-61 -53t-37.5 -77t-20 -86t-5 -87.5t5 -87.5t20 -86t37.5 -77t61 -53t88.5 -20.5z" />
    <glyph glyph-name="one" unicode="1" 
d="M331 690v-690h-38v616q-72 -77 -185 -88v33q124 19 189 129h34z" />
    <glyph glyph-name="two" unicode="2" 
d="M94 38h412v-38h-460q3 46 20.5 85t52 73t62.5 55.5t76 53.5q37 25 51 34.5t44.5 32.5t43.5 39t30.5 39.5t24 48.5t6.5 53q0 68 -50 111.5t-120 43.5q-91 0 -138.5 -59t-47.5 -153h-38q12 245 218 245q93 0 153.5 -49t60.5 -140q0 -43 -15.5 -81.5t-45.5 -71.5t-60 -57
t-73 -53q-110 -73 -142 -103q-61 -55 -65 -109z" />
    <glyph glyph-name="three" unicode="3" 
d="M36 228h38q-4 -96 50.5 -151.5t150.5 -55.5q81 0 139.5 45.5t58.5 124.5q0 47 -20 81t-54 51t-73.5 23.5t-84.5 3.5v33q41 -2 77 4t68.5 21.5t51.5 46t19 73.5q0 68 -55.5 104.5t-126.5 36.5q-87 0 -133.5 -53.5t-50.5 -143.5h-38q1 103 60.5 166.5t161.5 63.5
q92 0 156 -44t64 -130q0 -62 -37.5 -106t-97.5 -52v-2q69 -8 110 -57t41 -120q0 -98 -67 -150.5t-169 -52.5q-116 0 -180 63t-59 177z" />
    <glyph glyph-name="four" unicode="4" 
d="M365 690h38v-481h116v-33h-116v-176h-38v176h-336v38zM365 209v429h-2l-296 -429h298z" />
    <glyph glyph-name="five" unicode="5" 
d="M58 333l72 357h349v-33h-319l-59 -275l2 -2q60 83 171 83q103 0 168.5 -66t65.5 -169q0 -104 -65.5 -172t-168.5 -68t-173.5 61t-63.5 162h38q-1 -84 56.5 -137t142.5 -53q86 0 141 60t55 147q0 85 -56 143.5t-140 58.5q-110 0 -177 -97h-39z" />
    <glyph glyph-name="six" unicode="6" 
d="M288 21q82 0 137.5 58t55.5 141t-55.5 143t-137.5 60q-84 0 -139.5 -59t-55.5 -144t56.5 -142t138.5 -57zM507 520h-38q-11 67 -58 108t-115 41q-46 0 -82 -16.5t-58.5 -46.5t-38.5 -65t-23.5 -78t-10.5 -78.5t-3 -74.5l2 -2q22 66 79.5 107t126.5 41q101 0 166 -67
t65 -169q0 -100 -65.5 -166t-165.5 -66q-70 0 -119.5 26t-76 73t-38.5 102t-12 122q0 56 5.5 106.5t22.5 104.5t44 92t74 63t108 25q87 0 144 -48t67 -134z" />
    <glyph glyph-name="seven" unicode="7" 
d="M56 657v33h445v-38q-50 -55 -82 -95t-72 -102.5t-65.5 -123.5t-47 -146.5t-30.5 -184.5h-44q6 82 21 152t46.5 153t90.5 171.5t145 180.5h-407z" />
    <glyph glyph-name="eight" unicode="8" 
d="M479 198q0 81 -56.5 121t-144.5 40t-144.5 -40t-56.5 -121q0 -87 57.5 -132t143.5 -45t143.5 45t57.5 132zM65 529q0 90 61 131.5t152 41.5t152 -41.5t61 -131.5q0 -59 -32.5 -99t-94.5 -52v-2q70 -8 111.5 -56t41.5 -122q0 -103 -67 -156.5t-172 -53.5t-172 53.5
t-67 156.5q0 74 41.5 122t111.5 56v2q-62 12 -94.5 52t-32.5 99zM453 529q0 73 -49.5 106.5t-125.5 33.5t-125.5 -33.5t-49.5 -106.5q0 -69 50.5 -103t124.5 -34t124.5 34t50.5 103z" />
    <glyph glyph-name="nine" unicode="9" 
d="M279 267q84 0 139.5 59t55.5 144q0 83 -56 141t-139 58t-139 -58.5t-56 -140.5q0 -83 56.5 -143t138.5 -60zM55 170h38q11 -67 58 -108t115 -41q46 0 82 17t58.5 47t38.5 65t23.5 77t10.5 76t3 69l-2 2q-23 -62 -74 -101t-127 -39q-103 0 -168 66t-65 170q0 102 65.5 167
t167.5 65q241 0 241 -323q0 -56 -5.5 -106.5t-22.5 -104.5t-44 -92t-74 -63t-108 -25q-87 0 -144 48t-67 134z" />
    <glyph glyph-name="colon" unicode=":" horiz-adv-x="278" 
d="M113 514h51v-103h-51v103zM164 0h-51v103h51v-103z" />
    <glyph glyph-name="semicolon" unicode=";" horiz-adv-x="278" 
d="M100 -126v33q34 15 34 93h-21v103h51v-103q0 -102 -64 -126zM113 514h51v-103h-51v103z" />
    <glyph glyph-name="less" unicode="&#x3c;" horiz-adv-x="600" 
d="M554 514v-42l-475 -218l475 -220v-42l-508 236v52z" />
    <glyph glyph-name="equal" unicode="=" horiz-adv-x="600" 
d="M552 369v-38h-504v38h504zM552 175v-38h-504v38h504z" />
    <glyph glyph-name="greater" unicode="&#x3e;" horiz-adv-x="600" 
d="M46 -8v42l475 218l-475 220v42l508 -236v-52z" />
    <glyph glyph-name="question" unicode="?" horiz-adv-x="519" 
d="M81 493h-38q0 109 57.5 173.5t164.5 64.5q85 0 140.5 -46t55.5 -133q0 -40 -15 -74t-28.5 -49.5t-45.5 -46.5q-23 -20 -35 -32.5t-29.5 -37.5t-25.5 -57t-8 -74h-38q0 73 22.5 118.5t65.5 86.5q31 29 49 49t34 52t16 65q0 70 -46.5 105.5t-114.5 35.5q-87 0 -134 -55.5
t-47 -144.5zM231 0v103h51v-103h-51z" />
    <glyph glyph-name="at" unicode="@" horiz-adv-x="800" 
d="M425 547q-79 0 -135.5 -86.5t-56.5 -173.5q0 -55 29.5 -88.5t73.5 -33.5q28 0 59.5 22t56.5 57q28 39 46.5 92t18.5 93q0 18 -3 34.5t-11.5 37.5t-28.5 33.5t-49 12.5zM609 560l-96 -296q-16 -48 -16 -60q0 -15 11.5 -24.5t27.5 -9.5q67 0 123.5 83t56.5 170
q0 120 -91 197.5t-208 77.5q-137 0 -235 -102t-98 -243q0 -143 102.5 -240t232.5 -97q82 0 156 41t119 111h44q-46 -85 -133.5 -135t-185.5 -50q-159 0 -266 109.5t-107 267.5q0 153 109 262t260 109q143 0 241 -88.5t98 -222.5q0 -110 -74 -199t-155 -89q-28 0 -46.5 18.5
t-19.5 52.5h-2q-49 -71 -134 -71q-56 0 -92 44t-36 106q0 110 68.5 204t167.5 94q46 0 76 -26.5t36 -64.5h2l23 71h41z" />
    <glyph glyph-name="A" unicode="A" horiz-adv-x="593" 
d="M275 714h48l282 -714h-47l-90 229h-342l-91 -229h-47zM140 267h314l-153 404h-2z" />
    <glyph glyph-name="B" unicode="B" horiz-adv-x="630" 
d="M107 352v-314h242q96 0 150.5 42t54.5 120q0 57 -33 93t-76 47.5t-96 11.5h-242zM63 0v714h286q118 0 171.5 -53t53.5 -132q0 -58 -38.5 -101.5t-100.5 -50.5l2 -2q7 1 24 -3t41 -16t45 -31t36 -51.5t15 -73.5q0 -96 -67.5 -148t-181.5 -52h-286zM107 676v-286h242
q87 0 134 40t47 107q0 72 -51 105.5t-130 33.5h-242z" />
    <glyph glyph-name="C" unicode="C" horiz-adv-x="704" 
d="M663 501h-44q-14 88 -82.5 140t-160.5 52q-136 0 -216 -96.5t-80 -239.5t80 -239.5t216 -96.5q102 0 175.5 77t79.5 180h44q-12 -128 -96.5 -211.5t-202.5 -83.5q-156 0 -248 106t-92 268t92 268t248 106q71 0 126.5 -23.5t84 -54t47.5 -68t23.5 -56t5.5 -28.5z" />
    <glyph glyph-name="D" unicode="D" horiz-adv-x="667" 
d="M107 676v-638h192q42 0 80.5 9.5t76.5 32.5t65.5 58.5t44.5 92t17 127.5q0 83 -21 144.5t-51 94t-73 51.5t-76 23.5t-72 4.5h-183zM63 0v714h234q92 0 158.5 -29.5t102.5 -81.5t52.5 -112.5t16.5 -132.5q0 -160 -84 -259t-248 -99h-232z" />
    <glyph glyph-name="E" unicode="E" horiz-adv-x="560" 
d="M107 38h441v-38h-485v714h480v-38h-436v-286h410v-38h-410v-314z" />
    <glyph glyph-name="F" unicode="F" horiz-adv-x="514" 
d="M471 352h-364v-352h-44v714h448v-38h-404v-286h364v-38z" />
    <glyph glyph-name="G" unicode="G" horiz-adv-x="741" 
d="M382 350h301v-350h-38v152h-2q-26 -77 -100.5 -123t-169.5 -46q-157 0 -246.5 105t-89.5 265q0 159 91 268.5t246 109.5q113 0 196 -64.5t101 -173.5h-42q-25 94 -91.5 147t-162.5 53q-138 0 -216 -99t-78 -241q0 -144 76.5 -238t217.5 -94q127 0 201 80t69 211h-263v38z
" />
    <glyph glyph-name="H" unicode="H" horiz-adv-x="670" 
d="M563 352h-456v-352h-44v714h44v-324h456v324h44v-714h-44v352z" />
    <glyph glyph-name="I" unicode="I" horiz-adv-x="170" 
d="M63 0v714h44v-714h-44z" />
    <glyph glyph-name="J" unicode="J" horiz-adv-x="481" 
d="M20 227h44q-3 -44 1.5 -77.5t19 -64.5t48 -47.5t84.5 -16.5q45 0 76.5 13t47 29.5t23.5 49t9 52.5t1 59v13v477h44v-492q0 -27 -0.5 -40.5t-4 -43t-10 -46.5t-21 -40.5t-34.5 -36.5t-52.5 -22.5t-73.5 -9.5q-55 0 -94.5 16t-60 38t-31.5 58.5t-13.5 64t-2.5 67.5z" />
    <glyph glyph-name="K" unicode="K" horiz-adv-x="613" 
d="M63 0v714h44v-411l449 411h57l-326 -297l346 -417h-55l-323 387l-148 -135v-252h-44z" />
    <glyph glyph-name="L" unicode="L" horiz-adv-x="500" 
d="M63 0v714h44v-676h405v-38h-449z" />
    <glyph glyph-name="M" unicode="M" horiz-adv-x="809" 
d="M63 0v714h63l279 -665h2l276 665h63v-714h-44v660h-2l-272 -660h-44l-275 660h-2v-660h-44z" />
    <glyph glyph-name="N" unicode="N" horiz-adv-x="678" 
d="M63 0v714h55l451 -655h2v655h44v-714h-52l-454 660h-2v-660h-44z" />
    <glyph glyph-name="O" unicode="O" horiz-adv-x="741" 
d="M710 357q0 -161 -91.5 -267.5t-247.5 -106.5t-248 106t-92 268t92 268t248 106t247.5 -106.5t91.5 -267.5zM75 357q0 -143 80 -239.5t216 -96.5q135 0 215 96.5t80 239.5t-80 239.5t-215 96.5q-136 0 -216 -96.5t-80 -239.5z" />
    <glyph glyph-name="P" unicode="P" horiz-adv-x="591" 
d="M107 676v-320h251q89 0 131 47.5t42 111.5q0 24 -6.5 48t-23 51.5t-52 44.5t-85.5 17h-257zM63 0v714h304q28 0 53.5 -4t54.5 -17t50.5 -34.5t35.5 -58.5t14 -86q0 -94 -58.5 -145t-165.5 -51h-244v-318h-44z" />
    <glyph glyph-name="Q" unicode="Q" horiz-adv-x="741" 
d="M453 182l115 -83q98 95 98 258q0 143 -80 239.5t-215 96.5q-136 0 -216 -96.5t-80 -239.5t80 -239.5t216 -96.5q97 0 167 53l-108 77zM691 -37l-118 85q-84 -65 -202 -65q-156 0 -248 106t-92 268t92 268t248 106t247.5 -106.5t91.5 -267.5q0 -181 -107 -283l111 -80z
" />
    <glyph glyph-name="R" unicode="R" horiz-adv-x="630" 
d="M107 363h254q83 0 132.5 40.5t49.5 123.5q0 76 -51.5 112.5t-130.5 36.5h-254v-313zM63 0v714h298q103 0 164.5 -43.5t61.5 -140.5q0 -72 -41 -121.5t-112 -61.5v-2q73 -8 103 -48t36 -105q2 -23 2.5 -70t4.5 -76t17 -46h-49q-12 22 -15 58.5t-1.5 70t-2.5 71.5
q-8 59 -44.5 92t-123.5 33h-254v-325h-44z" />
    <glyph glyph-name="S" unicode="S" horiz-adv-x="630" 
d="M573 510h-44q-4 89 -65.5 136t-163.5 47q-33 0 -65 -7.5t-62.5 -24t-49.5 -47.5t-19 -73q0 -32 14.5 -56.5t29 -38.5t55 -27.5t57 -17.5t69.5 -15q12 -3 18 -4q45 -9 73 -16.5t64.5 -23t57 -34.5t35 -51t14.5 -73q0 -53 -23.5 -93.5t-61.5 -63t-80 -33.5t-86 -11
q-136 0 -219 61.5t-82 191.5h44q-6 -110 67.5 -162.5t189.5 -52.5q48 0 92.5 14t79.5 52.5t35 96.5q0 34 -13.5 60t-33.5 42t-53 28.5t-62 19.5t-71 15q-7 1 -11 2q-38 8 -61 13.5t-55 16t-51.5 24t-38.5 32t-28 45t-9 59.5q0 95 72 142.5t168 47.5q119 0 193.5 -54.5
t79.5 -166.5z" />
    <glyph glyph-name="T" unicode="T" horiz-adv-x="519" 
d="M237 676h-251v38h547v-38h-252v-676h-44v676z" />
    <glyph glyph-name="U" unicode="U" horiz-adv-x="672" 
d="M63 714h44v-428q0 -32 3 -61t16.5 -68.5t36 -67.5t66 -48t102.5 -20q125 0 179.5 68t54.5 197v428h44v-428q0 -303 -278 -303q-268 0 -268 303v428z" />
    <glyph glyph-name="V" unicode="V" 
d="M32 714l245 -676h2l247 676h44l-267 -714h-51l-266 714h46z" />
    <glyph glyph-name="W" unicode="W" horiz-adv-x="889" 
d="M200 0l-206 714h45l186 -667h2l189 667h55l192 -667h2l183 667h47l-205 -714h-50l-196 676h-2l-193 -676h-49z" />
    <glyph glyph-name="X" unicode="X" 
d="M251 367l-250 347h51l226 -314l231 314h50l-252 -347l266 -367h-53l-242 334l-243 -334h-52z" />
    <glyph glyph-name="Y" unicode="Y" horiz-adv-x="574" 
d="M287 336l259 378h49l-287 -415v-299h-44v299l-285 415h50z" />
    <glyph glyph-name="Z" unicode="Z" horiz-adv-x="537" 
d="M28 676v38h501v-38l-484 -638h493v-38h-539v38l482 638h-453z" />
    <glyph glyph-name="bracketleft" unicode="[" horiz-adv-x="241" 
d="M231 698h-99v-849h99v-33h-137v915h137v-33z" />
    <glyph glyph-name="backslash" unicode="\" horiz-adv-x="333" 
d="M346 -17h-41l-318 748h41z" />
    <glyph glyph-name="bracketright" unicode="]" horiz-adv-x="241" 
d="M10 -151h99v849h-99v33h137v-915h-137v33z" />
    <glyph glyph-name="asciicircum" unicode="^" horiz-adv-x="600" 
d="M561 237h-42l-218 420l-220 -420h-42l236 453h52z" />
    <glyph glyph-name="underscore" unicode="_" horiz-adv-x="500" 
d="M500 -125h-500v50h500v-50z" />
    <glyph glyph-name="grave" unicode="`" horiz-adv-x="167" 
d="M141 591h-37l-134 140h51z" />
    <glyph glyph-name="a" unicode="a" horiz-adv-x="500" 
d="M397 196v96q-11 -12 -33 -19.5t-42.5 -9.5t-56 -5t-54.5 -6q-71 -8 -106 -35.5t-35 -83.5q0 -49 35 -80.5t100 -31.5q49 0 86 16t56.5 37.5t31.5 48.5t15 44t3 29zM435 392v-297q0 -20 1 -30.5t9 -21t24 -10.5q10 0 28 3v-32q-22 -4 -31 -4q-41 0 -55 19t-14 56v27h-2
q-19 -49 -70 -81.5t-121 -32.5q-172 0 -172 145q0 35 12 61.5t30 42t44.5 26.5t50 15.5t52.5 6.5q45 3 72 6t49 9t31.5 11.5t16 18.5t7.5 25.5t1 36.5q0 11 -6.5 26t-20.5 33t-44.5 30t-71.5 12q-70 0 -112 -35.5t-46 -101.5h-38q4 84 54 127t142 43q180 0 180 -134z" />
    <glyph glyph-name="b" unicode="b" 
d="M300 21q64 0 107.5 38.5t60.5 92t17 117.5q0 92 -49 158t-136 66q-97 0 -146.5 -61.5t-49.5 -162.5q0 -104 49 -176t147 -72zM65 0v714h38v-309h2q21 58 75.5 89.5t119.5 31.5q109 0 166 -72t57 -185q0 -70 -17 -123t-41 -82t-56.5 -47t-58 -23.5t-50.5 -5.5
q-47 0 -85.5 15.5t-60.5 38.5t-33.5 41t-15.5 32h-2v-115h-38z" />
    <glyph glyph-name="c" unicode="c" horiz-adv-x="519" 
d="M481 355h-38q-5 66 -53.5 102t-120.5 36q-92 0 -145 -68.5t-53 -162.5q0 -109 51 -175t147 -66q71 0 120 44.5t59 115.5h38q-12 -90 -72 -141.5t-145 -51.5q-118 0 -177 78.5t-59 195.5q0 112 63 188t173 76q88 0 146 -43.5t66 -127.5z" />
    <glyph glyph-name="d" unicode="d" 
d="M262 21q92 0 141 69t49 166q0 98 -49 167.5t-142 69.5q-96 0 -143.5 -67.5t-47.5 -169.5q0 -98 49.5 -166.5t142.5 -68.5zM453 0v110h-2q-63 -122 -197 -122q-110 0 -166 76.5t-56 191.5q0 120 58.5 195t170.5 75q65 0 117.5 -34t72.5 -93h2v315h38v-714h-38z" />
    <glyph glyph-name="e" unicode="e" horiz-adv-x="519" 
d="M486 252h-415q-2 -97 48 -164t141 -67q73 0 121.5 41t62.5 112h38q-15 -90 -72.5 -138t-149.5 -48q-108 0 -168.5 74t-58.5 186q-2 114 57.5 196t169.5 82q115 0 173.5 -78.5t52.5 -195.5zM71 285h377q-2 86 -52.5 147t-135.5 61q-81 0 -131.5 -62.5t-57.5 -145.5z" />
    <glyph glyph-name="f" unicode="f" horiz-adv-x="241" 
d="M92 481h-92v33h92v106q0 51 31.5 76.5t81.5 25.5q20 0 45 -5v-33q-25 5 -45 5q-75 0 -75 -72v-103h107v-33h-107v-481h-38v481z" />
    <glyph glyph-name="g" unicode="g" horiz-adv-x="537" 
d="M255 493q-88 0 -136 -65.5t-48 -154.5q0 -95 48.5 -158t135.5 -63q89 0 138 64t49 157t-48.5 156.5t-138.5 63.5zM443 514h38v-487q0 -14 -0.5 -25.5t-5 -37t-12 -45t-24 -43t-39 -39t-59 -25t-82.5 -8.5q-193 0 -201 160h38q6 -65 51 -96t113 -31q51 0 88 16.5t54.5 37
t27.5 50t11.5 45t1.5 32.5v118h-2q-55 -117 -186 -117q-109 0 -165.5 70.5t-56.5 183.5q0 107 59 180t163 73q62 0 114 -31.5t72 -87.5h2v107z" />
    <glyph glyph-name="h" unicode="h" horiz-adv-x="519" 
d="M56 714h38v-310h2q19 56 70.5 89t113.5 33q43 0 76 -10.5t52 -30t31 -39t17 -47.5t6 -43.5t1 -37.5v-318h-38v325q0 168 -146 168q-85 0 -135 -59.5t-50 -155.5v-278h-38v714z" />
    <glyph glyph-name="i" unicode="i" horiz-adv-x="168" 
d="M103 0h-38v514h38v-514zM103 611h-38v103h38v-103z" />
    <glyph glyph-name="j" unicode="j" horiz-adv-x="168" 
d="M65 514h38v-569q0 -60 -22 -94.5t-83 -34.5q-22 0 -32 1v33q12 -2 25 -2q41 0 57.5 21t16.5 79v566zM103 611h-38v103h38v-103z" />
    <glyph glyph-name="k" unicode="k" horiz-adv-x="463" 
d="M58 0v714h38v-473l317 273h55l-225 -192l241 -322h-52l-219 293l-117 -99v-194h-38z" />
    <glyph glyph-name="l" unicode="l" horiz-adv-x="168" 
d="M65 714h38v-714h-38v714z" />
    <glyph glyph-name="m" unicode="m" horiz-adv-x="796" 
d="M57 0v514h38v-105h2q12 49 58 83t103 34q68 0 107 -32t48 -77h2q47 109 163 109q73 0 117 -44t44 -131v-351h-38v352q0 37 -10 64.5t-24 41.5t-33 22.5t-31.5 10.5t-24.5 2q-72 0 -116.5 -49.5t-44.5 -139.5v-304h-38v352q0 45 -13.5 76t-35.5 43.5t-38.5 17t-33.5 4.5
q-63 0 -113 -49t-50 -140v-304h-38z" />
    <glyph glyph-name="n" unicode="n" horiz-adv-x="519" 
d="M56 0v514h38v-110h2q19 56 70.5 89t113.5 33q43 0 76 -10.5t52 -30t31 -39t17 -47.5t6 -43.5t1 -37.5v-318h-38v325q0 168 -146 168q-85 0 -135 -59.5t-50 -155.5v-278h-38z" />
    <glyph glyph-name="o" unicode="o" horiz-adv-x="537" 
d="M32 257q0 114 63.5 191.5t172.5 77.5t172.5 -77.5t63.5 -191.5t-63.5 -191.5t-172.5 -77.5t-172.5 77.5t-63.5 191.5zM70 257q0 -98 53 -167t145 -69t145 69t53 167t-53 167t-145 69t-145 -69t-53 -167z" />
    <glyph glyph-name="p" unicode="p" 
d="M292 21q95 0 144 66.5t49 168.5q0 98 -48.5 167.5t-144.5 69.5t-142 -68t-46 -169q0 -49 9.5 -89t30 -74t58.5 -53t90 -19zM103 514v-118h2q15 48 63 89t124 41q113 0 172 -77t59 -193q0 -122 -58.5 -195t-172.5 -73q-67 0 -116 29.5t-71 89.5h-2v-291h-38v698h38z" />
    <glyph glyph-name="q" unicode="q" 
d="M261 21q93 0 142 69.5t49 167.5q0 97 -49 166t-141 69q-93 0 -142.5 -68.5t-49.5 -166.5q0 -102 47.5 -169.5t143.5 -67.5zM453 -184v299h-2q-20 -59 -72.5 -93t-117.5 -34q-112 0 -170.5 75t-58.5 195q0 115 56 191.5t166 76.5q134 0 197 -122h2v110h38v-698h-38z" />
    <glyph glyph-name="r" unicode="r" horiz-adv-x="278" 
d="M94 514v-114h3q15 51 71.5 85.5t125.5 31.5v-38q-81 10 -142 -50q-30 -31 -42.5 -61.5t-15.5 -86.5v-281h-38v514h38z" />
    <glyph glyph-name="s" unicode="s" horiz-adv-x="481" 
d="M36 171h38q4 -70 51.5 -110t118.5 -40q28 0 54 5t52 16t41.5 33.5t15.5 54.5q0 39 -27 63.5t-53 32.5t-82 19q-9 2 -14 3q-41 8 -66.5 16t-54 24t-42.5 42t-14 64q0 48 29.5 79t69 42t87.5 11q87 0 138.5 -40t51.5 -124h-38q-1 67 -42 99t-110 32q-60 0 -104 -24.5
t-44 -74.5q0 -27 12.5 -46.5t36 -31t48.5 -18.5t58 -14q11 -2 16 -3q45 -8 72.5 -16.5t55.5 -25t41 -43.5t13 -66q0 -40 -18.5 -69t-49 -44t-63.5 -22t-70 -7q-91 0 -148.5 48t-59.5 135z" />
    <glyph glyph-name="t" unicode="t" horiz-adv-x="259" 
d="M245 514v-33h-112v-359q0 -58 25.5 -74.5t85.5 -14.5v-33q-33 -2 -57 1t-47.5 14.5t-34.5 38t-10 68.5v359h-95v33h95v160h38v-160h112z" />
    <glyph glyph-name="u" unicode="u" horiz-adv-x="519" 
d="M463 514v-514h-38v110h-2q-19 -56 -70.5 -89t-113.5 -33q-43 0 -76 10.5t-52 30t-31 39t-17 47.5t-6 43.5t-1 37.5v318h38v-325q0 -168 146 -168q85 0 135 59.5t50 155.5v278h38z" />
    <glyph glyph-name="v" unicode="v" horiz-adv-x="444" 
d="M446 514l-194 -514h-47l-207 514h44l186 -470h2l174 470h42z" />
    <glyph glyph-name="w" unicode="w" horiz-adv-x="704" 
d="M39 514l145 -470h2l140 470h51l141 -470h2l144 470h42l-165 -514h-47l-141 466h-2l-142 -466h-48l-163 514h41z" />
    <glyph glyph-name="x" unicode="x" horiz-adv-x="444" 
d="M-6 0l202 270l-188 244h53l161 -215l162 215h49l-186 -244l203 -270h-52l-176 241l-180 -241h-48z" />
    <glyph glyph-name="y" unicode="y" horiz-adv-x="444" 
d="M209 3l-215 511h45l191 -469l176 469h43l-220 -569q-37 -88 -60 -106q-19 -15 -45 -19t-75 -4v33q41 0 64.5 7t42.5 26q16 16 53 121z" />
    <glyph glyph-name="z" unicode="z" horiz-adv-x="426" 
d="M55 33h362v-33h-408v36l345 445h-318v33h365v-36z" />
    <glyph glyph-name="braceleft" unicode="{" horiz-adv-x="333" 
d="M293 731v-33h-48q-30 0 -41 -22.5t-11 -80.5v-157q0 -38 -7 -67.5t-13.5 -44.5t-20 -28.5t-16 -14.5t-13.5 -7q1 -1 9.5 -7t14.5 -12t15.5 -19t15.5 -29t10.5 -42t4.5 -58v-157q0 -58 11 -80.5t41 -22.5h48v-33h-50q-44 0 -66 26.5t-22 91.5v158q0 160 -72 162v38
q72 2 72 162v159q0 65 22 91.5t66 26.5h50z" />
    <glyph glyph-name="bar" unicode="|" horiz-adv-x="222" 
d="M92 -17v748h38v-748h-38z" />
    <glyph glyph-name="braceright" unicode="}" horiz-adv-x="333" 
d="M40 -184v33h48q30 0 41 22.5t11 80.5v157q0 32 4.5 58t10.5 42t15.5 29t15.5 19t14.5 12t9.5 7q-33 18 -48 48q-22 43 -22 114v157q0 58 -11 80.5t-41 22.5h-48v33h50q44 0 66 -26.5t22 -91.5v-159q0 -160 72 -162v-38q-72 -2 -72 -162v-158q0 -65 -22 -91.5t-66 -26.5
h-50z" />
    <glyph glyph-name="asciitilde" unicode="~" horiz-adv-x="600" 
d="M500 312l28 -28q-55 -85 -121 -85q-40 0 -114 38q-60 30 -92 30q-66 0 -99 -75l-29 30q26 43 52.5 63t69.5 20q39 0 111 -32q6 -3 21.5 -11t25 -12.5t25 -8.5t30.5 -4q27 0 52 23t40 52z" />
    <glyph glyph-name="exclamdown" unicode="&#xa1;" horiz-adv-x="259" 
d="M153 -184h-48v241l12 290h24l12 -290v-241zM104 535h51v-103h-51v103z" />
    <glyph glyph-name="cent" unicode="&#xa2;" 
d="M272 21v472q-85 -6 -134 -73.5t-49 -157.5q0 -104 47 -170t136 -71zM272 -118v106q-110 5 -165.5 83t-55.5 191q0 108 59 183.5t162 80.5v89h32v-89q81 -4 134.5 -47.5t60.5 -123.5h-38q-5 62 -47.5 97.5t-109.5 40.5v-472q65 5 109 49t53 111h38q-12 -86 -66.5 -137
t-133.5 -56v-106h-32z" />
    <glyph glyph-name="sterling" unicode="&#xa3;" 
d="M50 330v33h60q-60 108 -60 176q0 90 66 141t161 51q117 0 177.5 -62.5t57.5 -184.5h-38q-2 209 -196 209q-87 0 -138.5 -41t-51.5 -111q0 -25 7.5 -52t15 -43.5t22.5 -44t20 -38.5h160v-33h-141q23 -35 23 -108q0 -53 -28.5 -104t-70.5 -87l2 -2q52 36 94 36
q45 0 104 -23q63 -21 91 -21q40 0 69.5 17.5t65.5 50.5l22 -33q-69 -73 -151 -73q-42 0 -108 22q-64 22 -96 22q-24 0 -46 -6.5t-34 -13.5t-40 -24l-25 34q53 51 83 99t30 108q0 62 -29 106h-78z" />
    <glyph glyph-name="currency" unicode="&#xa4;" 
d="M519 131l-27 -27l-53 54q-70 -61 -162 -61t-160 61l-55 -56l-27 27l56 55q-59 70 -61 161q0 93 61 161l-57 56l27 27l56 -56q69 58 160 60q92 0 162 -61l54 55l27 -27l-55 -54q61 -68 61 -161t-61 -160zM278 135q83 0 143.5 61.5t60.5 148.5t-60.5 148.5t-143.5 61.5
t-143.5 -61.5t-60.5 -148.5t60.5 -148.5t143.5 -61.5z" />
    <glyph glyph-name="yen" unicode="&#xa5;" 
d="M-7 714h48l238 -374l239 374h45l-238 -372h92v-33h-120v-78h120v-33h-120v-198h-38v198h-120v33h120v78h-120v33h92z" />
    <glyph glyph-name="brokenbar" unicode="&#xa6;" horiz-adv-x="222" 
d="M92 -17v270h38v-270h-38zM92 461v270h38v-270h-38z" />
    <glyph glyph-name="section" unicode="&#xa7;" 
d="M339 359l-152 90q-40 -15 -68.5 -44.5t-28.5 -67.5q0 -32 19 -60t37.5 -41.5t51.5 -33.5q123 -74 165 -101q8 -2 29 9t38 25q35 31 35 78q0 24 -11 46.5t-32.5 41t-39 31t-43.5 27.5zM449 536h-38q3 64 -34.5 113t-101.5 49q-47 2 -87 -28.5t-41 -76.5q0 -31 13 -57
t39 -47t51 -36t62 -34l12 -6q36 -19 53.5 -29t46.5 -30t42.5 -38t25 -45t11.5 -58q0 -107 -111 -136q31 -29 44 -55.5t13 -67.5q0 -71 -47 -104.5t-121 -33.5q-85 0 -133.5 53t-48.5 140h38q2 -71 38.5 -115.5t104.5 -44.5q62 0 96.5 26t34.5 79q0 30 -13.5 55.5t-38 45.5
t-52.5 37t-62 35q-3 1 -5 2t-4.5 2.5t-4.5 2.5q-41 24 -59 35t-47.5 33t-42 39t-22 42.5t-8.5 53.5q0 45 32 81t79 53q-31 22 -45 60.5t-9 61.5q0 60 50.5 100.5t115.5 37.5q84 0 128.5 -52t45.5 -143z" />
    <glyph glyph-name="dieresis" unicode="&#xa8;" horiz-adv-x="167" 
d="M26 594h-44v103h44v-103zM184 594h-44v103h44v-103z" />
    <glyph glyph-name="copyright" unicode="&#xa9;" horiz-adv-x="800" 
d="M401 698q-144 0 -240.5 -98t-96.5 -242q0 -143 97 -242.5t240 -99.5q142 0 238.5 99.5t96.5 242.5q0 144 -96 242t-239 98zM599 438h-38q-11 57 -52.5 89.5t-99.5 32.5q-87 0 -136.5 -56t-49.5 -145q0 -87 51.5 -146.5t136.5 -59.5q59 0 97 34.5t53 93.5h38
q-9 -72 -62 -116.5t-126 -44.5q-101 0 -163.5 67.5t-62.5 170.5q0 104 60.5 169.5t162.5 65.5q75 0 128.5 -41t62.5 -114zM400 731q155 0 264.5 -109.5t109.5 -264.5t-109.5 -264.5t-264.5 -109.5t-264.5 109.5t-109.5 264.5t109.5 264.5t264.5 109.5z" />
    <glyph glyph-name="ordfeminine" unicode="&#xaa;" horiz-adv-x="310" 
d="M250 498v56q-7 -7 -21 -11.5t-27.5 -6t-35 -3t-33.5 -3.5q-88 -10 -88 -68q0 -30 21.5 -49.5t58.5 -19.5q39 0 66.5 13.5t39 33.5t15.5 34t4 24zM61 596h-32q12 106 132 106q121 0 121 -85v-178q0 -37 18 -37q10 0 18 2v-27q-14 -2 -20 -2q-27 0 -36 11.5t-9 33.5v14h-2
q-10 -29 -43 -48.5t-80 -19.5q-115 0 -115 96q0 86 123 95q81 6 98 16t17 49q0 26 -25.5 39.5t-67.5 13.5q-41 0 -67.5 -21t-29.5 -58z" />
    <glyph glyph-name="guillemotleft" unicode="&#xab;" horiz-adv-x="389" 
d="M181 121l-114 131v40l114 131v-51l-85 -100l85 -102v-49zM309 121l-114 131v40l114 131v-51l-85 -100l85 -102v-49z" />
    <glyph glyph-name="logicalnot" unicode="&#xac;" horiz-adv-x="600" 
d="M514 108v223h-466v38h504v-261h-38z" />
    <glyph glyph-name="registered" unicode="&#xae;" horiz-adv-x="800" 
d="M264 136v442h166q144 0 144 -122q0 -51 -31.5 -80t-82.5 -37l132 -203h-42l-133 204h-115v-204h-38zM302 545v-172h94q30 0 51 2.5t43.5 10.5t34 26t11.5 45q0 47 -32.5 67.5t-79.5 20.5h-122zM401 698q-144 0 -240.5 -98t-96.5 -243q0 -142 97 -241.5t240 -99.5
q142 0 238.5 99.5t96.5 242.5q0 144 -96 242t-239 98zM400 731q155 0 264.5 -109.5t109.5 -264.5t-109.5 -264.5t-264.5 -109.5t-264.5 109.5t-109.5 264.5t109.5 264.5t264.5 109.5z" />
    <glyph glyph-name="macron" unicode="&#xaf;" horiz-adv-x="167" 
d="M205 629h-242v33h242v-33z" />
    <glyph glyph-name="degree" unicode="&#xb0;" horiz-adv-x="400" 
d="M200 669q-45 0 -75 -32.5t-30 -77.5t30 -77.5t75 -32.5t75 32.5t30 77.5t-30 77.5t-75 32.5zM200 416q-60 0 -101.5 41.5t-41.5 101.5t41.5 101.5t101.5 41.5t101.5 -41.5t41.5 -101.5t-41.5 -101.5t-101.5 -41.5z" />
    <glyph glyph-name="plusminus" unicode="&#xb1;" horiz-adv-x="600" 
d="M281 315v189h38v-189h233v-38h-233v-189h-38v189h-233v38h233zM48 0v38h504v-38h-504z" />
    <glyph glyph-name="twosuperior" unicode="&#xb2;" horiz-adv-x="333" 
d="M48 302h268v-27h-300q1 38 23.5 71.5t46.5 52t65 43.5q35 21 49.5 31t38 29.5t33 39.5t9.5 43q0 37 -28 63.5t-83 26.5q-107 0 -114 -124h-32q5 73 38.5 112t107.5 39q63 0 103 -30t40 -88q0 -45 -33 -80.5t-93 -73.5q-7 -4 -26.5 -16t-26.5 -16.5t-22 -15t-22 -17.5
t-16.5 -17.5t-15.5 -21.5t-10 -24z" />
    <glyph glyph-name="threesuperior" unicode="&#xb3;" horiz-adv-x="333" 
d="M18 415h32q-2 -56 33 -89t96 -33q51 0 88.5 27t37.5 71q0 51 -43.5 72.5t-106.5 17.5v27q57 -3 98.5 17t41.5 68q0 39 -36 60.5t-80 21.5q-56 0 -86 -31.5t-32 -84.5h-32q1 66 41.5 104.5t113.5 38.5q60 0 101.5 -27t41.5 -82q0 -37 -24 -63.5t-64 -31.5v-2
q45 -4 71.5 -33.5t26.5 -71.5q0 -61 -43.5 -93t-109.5 -32q-83 0 -126 38t-40 111z" />
    <glyph glyph-name="acute" unicode="&#xb4;" horiz-adv-x="167" 
d="M26 591l120 140h51l-134 -140h-37z" />
    <glyph glyph-name="mu" unicode="&#xb5;" horiz-adv-x="519" 
d="M463 514v-514h-38v110h-2q-19 -56 -70.5 -89t-113.5 -33q-100 0 -143 56h-2v-228h-38v698h38v-325q0 -168 146 -168q85 0 135 59.5t50 155.5v278h38z" />
    <glyph glyph-name="paragraph" unicode="&#xb6;" horiz-adv-x="600" 
d="M273 -146v470q-87 0 -147 57t-60 137q0 95 58.5 145.5t164.5 50.5h217v-860h-38v827h-157v-827h-38z" />
    <glyph glyph-name="periodcentered" unicode="&#xb7;" horiz-adv-x="278" 
d="M85 317q0 21 16.5 37.5t37.5 16.5t38 -16.5t17 -37.5q0 -22 -16.5 -38.5t-38.5 -16.5q-21 0 -37.5 17t-16.5 38z" />
    <glyph glyph-name="cedilla" unicode="&#xb8;" horiz-adv-x="167" 
d="M83 0h34l-48 -56l2 -2q20 9 37 9q31 0 53 -18.5t22 -54.5q0 -74 -102 -74q-50 0 -90 21l11 24q49 -18 80 -18q26 0 44.5 11t18.5 36q0 22 -16 34t-33 12q-27 0 -53 -12l-16 13z" />
    <glyph glyph-name="onesuperior" unicode="&#xb9;" horiz-adv-x="333" 
d="M208 693v-418h-32v371q-46 -47 -117 -53v27q76 11 120 73h29z" />
    <glyph glyph-name="ordmasculine" unicode="&#xba;" horiz-adv-x="334" 
d="M167 366q-74 0 -116 47t-42 121t42 121t116 47t116 -47t42 -121t-42 -121t-116 -47zM167 393q62 0 94 40.5t32 100.5t-32 100.5t-94 40.5t-94 -40.5t-32 -100.5t32 -100.5t94 -40.5z" />
    <glyph glyph-name="guillemotright" unicode="&#xbb;" horiz-adv-x="389" 
d="M80 121v49l85 102l-85 100v51l114 -131v-40zM208 121v49l85 102l-85 100v51l114 -131v-40z" />
    <glyph glyph-name="onequarter" unicode="&#xbc;" horiz-adv-x="834" 
d="M151 -24l465 738h40l-465 -738h-40zM243 693v-418h-32v371q-46 -47 -117 -53v27q76 11 120 73h29zM626 414h47v-283h71v-27h-71v-104h-32v104h-215v27zM641 131v250h-2l-177 -250h179z" />
    <glyph glyph-name="onehalf" unicode="&#xbd;" horiz-adv-x="834" 
d="M121 -24l465 738h40l-465 -738h-40zM213 693v-418h-32v371q-46 -47 -117 -53v27q76 11 120 73h29zM517 27h266v-27h-300q1 38 23.5 71.5t46.5 52t65 43.5q35 21 49.5 31t38 29.5t33 39.5t9.5 43q0 37 -28 63.5t-83 26.5q-107 0 -114 -124h-32q5 73 38.5 112t107.5 39
q63 0 103 -30t40 -88q0 -45 -33 -80.5t-93 -73.5q-7 -4 -26.5 -16t-26 -16.5t-22 -15t-22 -17.5t-16 -17.5t-15 -21.5t-9.5 -24z" />
    <glyph glyph-name="threequarters" unicode="&#xbe;" horiz-adv-x="834" 
d="M33 415h32q-2 -56 33 -89t96 -33q51 0 88.5 27t37.5 71q0 51 -43.5 72.5t-106.5 17.5v27q57 -3 98.5 17t41.5 68q0 39 -36 60.5t-80 21.5q-56 0 -86 -31.5t-32 -84.5h-32q1 66 41.5 104.5t113.5 38.5q60 0 101.5 -27t41.5 -82q0 -37 -24 -63.5t-64 -31.5v-2
q45 -4 71.5 -33.5t26.5 -71.5q0 -61 -43.5 -93t-109.5 -32q-83 0 -126 38t-40 111zM198 -24l465 738h40l-465 -738h-40zM656 414h47v-283h71v-27h-71v-104h-32v104h-215v27zM671 131v250h-2l-177 -250h179z" />
    <glyph glyph-name="questiondown" unicode="&#xbf;" horiz-adv-x="519" 
d="M437 42h38q0 -109 -57.5 -173.5t-164.5 -64.5q-85 0 -140.5 46t-55.5 133q0 40 15 74t28.5 49.5t45.5 46.5q23 20 35 32.5t29.5 37.5t25.5 57t8 74h38q0 -73 -22.5 -118.5t-65.5 -86.5q-31 -29 -49 -49t-34 -52t-16 -65q0 -70 46.5 -105.5t114.5 -35.5q87 0 134 55.5
t47 144.5zM287 535v-103h-51v103h51z" />
    <glyph glyph-name="Agrave" unicode="&#xc0;" horiz-adv-x="593" 
d="M275 714h48l282 -714h-47l-90 229h-342l-91 -229h-47zM140 267h314l-153 404h-2zM354 764h-37l-134 140h51z" />
    <glyph glyph-name="Aacute" unicode="&#xc1;" horiz-adv-x="593" 
d="M275 714h48l282 -714h-47l-90 229h-342l-91 -229h-47zM140 267h314l-153 404h-2zM239 764l120 140h51l-134 -140h-37z" />
    <glyph glyph-name="Acircumflex" unicode="&#xc2;" horiz-adv-x="593" 
d="M275 714h48l282 -714h-47l-90 229h-342l-91 -229h-47zM140 267h314l-153 404h-2zM276 904h40l116 -140h-38l-98 115l-97 -115h-38z" />
    <glyph glyph-name="Atilde" unicode="&#xc3;" horiz-adv-x="593" 
d="M275 714h48l282 -714h-47l-90 229h-342l-91 -229h-47zM140 267h314l-153 404h-2zM181 775h-29q3 36 23.5 63t53.5 27q20 0 70 -27q5 -3 17 -10t18.5 -10.5t16 -6.5t16.5 -3q19 0 30.5 17t14.5 40h29q-5 -40 -21 -61q-22 -29 -55 -29q-22 0 -69 29q-46 28 -70 28
q-36 0 -45 -57z" />
    <glyph glyph-name="Adieresis" unicode="&#xc4;" horiz-adv-x="593" 
d="M275 714h48l282 -714h-47l-90 229h-342l-91 -229h-47zM140 267h314l-153 404h-2zM239 767h-44v103h44v-103zM397 767h-44v103h44v-103z" />
    <glyph glyph-name="Aring" unicode="&#xc5;" horiz-adv-x="593" 
d="M275 714h48l282 -714h-47l-90 229h-342l-91 -229h-47zM140 267h314l-153 404h-2zM198 828q0 41 29 70t70 29t70 -29t29 -70t-29 -70t-70 -29t-70 29t-29 70zM225 828q0 -30 21 -51t51 -21t51 21t21 51t-21 51t-51 21t-51 -21t-21 -51z" />
    <glyph glyph-name="AE" unicode="&#xc6;" horiz-adv-x="870" 
d="M-9 0l373 714h490v-38h-379v-286h350v-38h-350v-314h380v-38h-424v254h-268l-132 -254h-40zM431 292v384h-47l-201 -384h248z" />
    <glyph glyph-name="Ccedilla" unicode="&#xc7;" horiz-adv-x="704" 
d="M631 278h44q-12 -128 -96.5 -211.5t-202.5 -83.5h-5l-34 -39l2 -2q20 9 37 9q31 0 53 -18.5t22 -54.5q0 -74 -102 -74q-50 0 -90 21l11 24q50 -18 80 -18q26 0 44.5 11t18.5 36q0 22 -16 34t-33 12q-27 0 -53 -12l-16 13l45 60q-141 12 -222.5 116t-81.5 256
q0 162 92 268t248 106q71 0 126.5 -23.5t84 -54t47.5 -68t23.5 -56t5.5 -28.5h-44q-14 88 -82.5 140t-160.5 52q-136 0 -216 -96.5t-80 -239.5t80 -239.5t216 -96.5q102 0 175.5 77t79.5 180z" />
    <glyph glyph-name="Egrave" unicode="&#xc8;" horiz-adv-x="560" 
d="M107 38h441v-38h-485v714h480v-38h-436v-286h410v-38h-410v-314zM338 764h-37l-134 140h51z" />
    <glyph glyph-name="Eacute" unicode="&#xc9;" horiz-adv-x="560" 
d="M107 38h441v-38h-485v714h480v-38h-436v-286h410v-38h-410v-314zM223 764l120 140h51l-134 -140h-37z" />
    <glyph glyph-name="Ecircumflex" unicode="&#xca;" horiz-adv-x="560" 
d="M107 38h441v-38h-485v714h480v-38h-436v-286h410v-38h-410v-314zM260 904h40l116 -140h-38l-98 115l-97 -115h-38z" />
    <glyph glyph-name="Edieresis" unicode="&#xcb;" horiz-adv-x="560" 
d="M107 38h441v-38h-485v714h480v-38h-436v-286h410v-38h-410v-314zM233 767h-44v103h44v-103zM391 767h-44v103h44v-103z" />
    <glyph glyph-name="Igrave" unicode="&#xcc;" horiz-adv-x="170" 
d="M63 0v714h44v-714h-44zM143 764h-37l-134 140h51z" />
    <glyph glyph-name="Iacute" unicode="&#xcd;" horiz-adv-x="170" 
d="M63 0v714h44v-714h-44zM28 764l120 140h51l-134 -140h-37z" />
    <glyph glyph-name="Icircumflex" unicode="&#xce;" horiz-adv-x="170" 
d="M63 0v714h44v-714h-44zM65 904h40l116 -140h-38l-98 115l-97 -115h-38z" />
    <glyph glyph-name="Idieresis" unicode="&#xcf;" horiz-adv-x="170" 
d="M63 0v714h44v-714h-44zM28 767h-44v103h44v-103zM186 767h-44v103h44v-103z" />
    <glyph glyph-name="Eth" unicode="&#xd0;" horiz-adv-x="667" 
d="M63 396v318h234q92 0 158.5 -29.5t102.5 -81.5t52.5 -112.5t16.5 -132.5q0 -160 -84 -259t-248 -99h-232v363h-68v33h68zM107 396h264v-33h-264v-325h192q42 0 80.5 9.5t76.5 32.5t65.5 58.5t44.5 92t17 127.5q0 83 -21 144.5t-51 94t-73 51.5t-76 23.5t-72 4.5h-183
v-280z" />
    <glyph glyph-name="Ntilde" unicode="&#xd1;" horiz-adv-x="678" 
d="M63 0v714h55l451 -655h2v655h44v-714h-52l-454 660h-2v-660h-44zM224 775h-29q3 36 23.5 63t53.5 27q20 0 70 -27q5 -3 17 -10t18.5 -10.5t16 -6.5t16.5 -3q19 0 30.5 17t14.5 40h29q-5 -40 -21 -61q-22 -29 -55 -29q-22 0 -69 29q-46 28 -70 28q-36 0 -45 -57z" />
    <glyph glyph-name="Ograve" unicode="&#xd2;" horiz-adv-x="741" 
d="M710 357q0 -161 -91.5 -267.5t-247.5 -106.5t-248 106t-92 268t92 268t248 106t247.5 -106.5t91.5 -267.5zM75 357q0 -143 80 -239.5t216 -96.5q135 0 215 96.5t80 239.5t-80 239.5t-215 96.5q-136 0 -216 -96.5t-80 -239.5zM428 764h-37l-134 140h51z" />
    <glyph glyph-name="Oacute" unicode="&#xd3;" horiz-adv-x="741" 
d="M710 357q0 -161 -91.5 -267.5t-247.5 -106.5t-248 106t-92 268t92 268t248 106t247.5 -106.5t91.5 -267.5zM75 357q0 -143 80 -239.5t216 -96.5q135 0 215 96.5t80 239.5t-80 239.5t-215 96.5q-136 0 -216 -96.5t-80 -239.5zM313 764l120 140h51l-134 -140h-37z" />
    <glyph glyph-name="Ocircumflex" unicode="&#xd4;" horiz-adv-x="741" 
d="M710 357q0 -161 -91.5 -267.5t-247.5 -106.5t-248 106t-92 268t92 268t248 106t247.5 -106.5t91.5 -267.5zM75 357q0 -143 80 -239.5t216 -96.5q135 0 215 96.5t80 239.5t-80 239.5t-215 96.5q-136 0 -216 -96.5t-80 -239.5zM350 904h40l116 -140h-38l-98 115l-97 -115
h-38z" />
    <glyph glyph-name="Otilde" unicode="&#xd5;" horiz-adv-x="741" 
d="M710 357q0 -161 -91.5 -267.5t-247.5 -106.5t-248 106t-92 268t92 268t248 106t247.5 -106.5t91.5 -267.5zM75 357q0 -143 80 -239.5t216 -96.5q135 0 215 96.5t80 239.5t-80 239.5t-215 96.5q-136 0 -216 -96.5t-80 -239.5zM255 775h-29q3 36 23.5 63t53.5 27
q20 0 70 -27q5 -3 17 -10t18.5 -10.5t16 -6.5t16.5 -3q19 0 30.5 17t14.5 40h29q-5 -40 -21 -61q-22 -29 -55 -29q-22 0 -69 29q-46 28 -70 28q-36 0 -45 -57z" />
    <glyph glyph-name="Odieresis" unicode="&#xd6;" horiz-adv-x="741" 
d="M710 357q0 -161 -91.5 -267.5t-247.5 -106.5t-248 106t-92 268t92 268t248 106t247.5 -106.5t91.5 -267.5zM75 357q0 -143 80 -239.5t216 -96.5q135 0 215 96.5t80 239.5t-80 239.5t-215 96.5q-136 0 -216 -96.5t-80 -239.5zM313 767h-44v103h44v-103zM471 767h-44v103
h44v-103z" />
    <glyph glyph-name="multiply" unicode="&#xd7;" horiz-adv-x="600" 
d="M79 58l194 194l-194 195l26 27l195 -195l194 195l27 -27l-194 -195l194 -194l-27 -27l-194 195l-195 -195z" />
    <glyph glyph-name="Oslash" unicode="&#xd8;" horiz-adv-x="741" 
d="M598 582l-433 -474q81 -87 206 -87q135 0 215 96.5t80 239.5q0 132 -68 225zM143 134l432 475q-82 84 -204 84q-136 0 -216 -96.5t-80 -239.5q0 -132 68 -223zM34 16l79 86q-82 102 -82 255q0 162 92 268t248 106q141 0 232 -91l68 74l26 -24l-70 -76q83 -101 83 -257
q0 -161 -91.5 -267.5t-247.5 -106.5q-145 0 -235 93l-76 -84z" />
    <glyph glyph-name="Ugrave" unicode="&#xd9;" horiz-adv-x="672" 
d="M63 714h44v-428q0 -32 3 -61t16.5 -68.5t36 -67.5t66 -48t102.5 -20q125 0 179.5 68t54.5 197v428h44v-428q0 -303 -278 -303q-268 0 -268 303v428zM394 764h-37l-134 140h51z" />
    <glyph glyph-name="Uacute" unicode="&#xda;" horiz-adv-x="672" 
d="M63 714h44v-428q0 -32 3 -61t16.5 -68.5t36 -67.5t66 -48t102.5 -20q125 0 179.5 68t54.5 197v428h44v-428q0 -303 -278 -303q-268 0 -268 303v428zM279 764l120 140h51l-134 -140h-37z" />
    <glyph glyph-name="Ucircumflex" unicode="&#xdb;" horiz-adv-x="672" 
d="M63 714h44v-428q0 -32 3 -61t16.5 -68.5t36 -67.5t66 -48t102.5 -20q125 0 179.5 68t54.5 197v428h44v-428q0 -303 -278 -303q-268 0 -268 303v428zM316 904h40l116 -140h-38l-98 115l-97 -115h-38z" />
    <glyph glyph-name="Udieresis" unicode="&#xdc;" horiz-adv-x="672" 
d="M63 714h44v-428q0 -32 3 -61t16.5 -68.5t36 -67.5t66 -48t102.5 -20q125 0 179.5 68t54.5 197v428h44v-428q0 -303 -278 -303q-268 0 -268 303v428zM279 767h-44v103h44v-103zM437 767h-44v103h44v-103z" />
    <glyph glyph-name="Yacute" unicode="&#xdd;" horiz-adv-x="574" 
d="M287 336l259 378h49l-287 -415v-299h-44v299l-285 415h50zM230 764l120 140h51l-134 -140h-37z" />
    <glyph glyph-name="Thorn" unicode="&#xde;" horiz-adv-x="593" 
d="M63 0v714h44v-120h260q28 0 53 -4t54.5 -17t51 -34t35.5 -58t14 -86q0 -94 -58.5 -145.5t-165.5 -51.5h-244v-198h-44zM107 556v-320h251q89 0 131 47.5t42 112.5q0 24 -6.5 48t-23 51t-52 44t-85.5 17h-257z" />
    <glyph glyph-name="germandbls" unicode="&#xdf;" horiz-adv-x="500" 
d="M207 379v33q79 0 131 36.5t52 111.5q0 63 -42.5 98t-107.5 35q-144 0 -144 -156v-537h-38v537q0 189 182 189q83 0 135.5 -42.5t52.5 -123.5q0 -131 -119 -157v-2q76 -9 115 -58.5t39 -128.5q0 -55 -15.5 -96.5t-37 -63t-51.5 -34.5t-52 -16.5t-45 -3.5h-55v33h38
q22 0 41.5 2.5t46.5 13.5t46 29.5t32.5 53.5t13.5 82q0 92 -57.5 128.5t-160.5 36.5z" />
    <glyph glyph-name="agrave" unicode="&#xe0;" horiz-adv-x="500" 
d="M397 196v96q-11 -12 -33 -19.5t-42.5 -9.5t-56 -5t-54.5 -6q-71 -8 -106 -35.5t-35 -83.5q0 -49 35 -80.5t100 -31.5q49 0 86 16t56.5 37.5t31.5 48.5t15 44t3 29zM435 392v-297q0 -20 1 -30.5t9 -21t24 -10.5q10 0 28 3v-32q-22 -4 -31 -4q-41 0 -55 19t-14 56v27h-2
q-19 -49 -70 -81.5t-121 -32.5q-172 0 -172 145q0 35 12 61.5t30 42t44.5 26.5t50 15.5t52.5 6.5q45 3 72 6t49 9t31.5 11.5t16 18.5t7.5 25.5t1 36.5q0 11 -6.5 26t-20.5 33t-44.5 30t-71.5 12q-70 0 -112 -35.5t-46 -101.5h-38q4 84 54 127t142 43q180 0 180 -134z
M308 591h-37l-134 140h51z" />
    <glyph glyph-name="aacute" unicode="&#xe1;" horiz-adv-x="500" 
d="M397 196v96q-11 -12 -33 -19.5t-42.5 -9.5t-56 -5t-54.5 -6q-71 -8 -106 -35.5t-35 -83.5q0 -49 35 -80.5t100 -31.5q49 0 86 16t56.5 37.5t31.5 48.5t15 44t3 29zM435 392v-297q0 -20 1 -30.5t9 -21t24 -10.5q10 0 28 3v-32q-22 -4 -31 -4q-41 0 -55 19t-14 56v27h-2
q-19 -49 -70 -81.5t-121 -32.5q-172 0 -172 145q0 35 12 61.5t30 42t44.5 26.5t50 15.5t52.5 6.5q45 3 72 6t49 9t31.5 11.5t16 18.5t7.5 25.5t1 36.5q0 11 -6.5 26t-20.5 33t-44.5 30t-71.5 12q-70 0 -112 -35.5t-46 -101.5h-38q4 84 54 127t142 43q180 0 180 -134z
M193 591l120 140h51l-134 -140h-37z" />
    <glyph glyph-name="acircumflex" unicode="&#xe2;" horiz-adv-x="500" 
d="M397 196v96q-11 -12 -33 -19.5t-42.5 -9.5t-56 -5t-54.5 -6q-71 -8 -106 -35.5t-35 -83.5q0 -49 35 -80.5t100 -31.5q49 0 86 16t56.5 37.5t31.5 48.5t15 44t3 29zM435 392v-297q0 -20 1 -30.5t9 -21t24 -10.5q10 0 28 3v-32q-22 -4 -31 -4q-41 0 -55 19t-14 56v27h-2
q-19 -49 -70 -81.5t-121 -32.5q-172 0 -172 145q0 35 12 61.5t30 42t44.5 26.5t50 15.5t52.5 6.5q45 3 72 6t49 9t31.5 11.5t16 18.5t7.5 25.5t1 36.5q0 11 -6.5 26t-20.5 33t-44.5 30t-71.5 12q-70 0 -112 -35.5t-46 -101.5h-38q4 84 54 127t142 43q180 0 180 -134z
M230 731h40l116 -140h-38l-98 115l-97 -115h-38z" />
    <glyph glyph-name="atilde" unicode="&#xe3;" horiz-adv-x="500" 
d="M397 196v96q-11 -12 -33 -19.5t-42.5 -9.5t-56 -5t-54.5 -6q-71 -8 -106 -35.5t-35 -83.5q0 -49 35 -80.5t100 -31.5q49 0 86 16t56.5 37.5t31.5 48.5t15 44t3 29zM435 392v-297q0 -20 1 -30.5t9 -21t24 -10.5q10 0 28 3v-32q-22 -4 -31 -4q-41 0 -55 19t-14 56v27h-2
q-19 -49 -70 -81.5t-121 -32.5q-172 0 -172 145q0 35 12 61.5t30 42t44.5 26.5t50 15.5t52.5 6.5q45 3 72 6t49 9t31.5 11.5t16 18.5t7.5 25.5t1 36.5q0 11 -6.5 26t-20.5 33t-44.5 30t-71.5 12q-70 0 -112 -35.5t-46 -101.5h-38q4 84 54 127t142 43q180 0 180 -134z
M135 602h-29q3 36 23.5 63t53.5 27q20 0 70 -27q5 -3 17 -10t18.5 -10.5t16 -6.5t16.5 -3q19 0 30.5 17t14.5 40h29q-5 -40 -21 -61q-22 -29 -55 -29q-22 0 -69 29q-46 28 -70 28q-36 0 -45 -57z" />
    <glyph glyph-name="adieresis" unicode="&#xe4;" horiz-adv-x="500" 
d="M397 196v96q-11 -12 -33 -19.5t-42.5 -9.5t-56 -5t-54.5 -6q-71 -8 -106 -35.5t-35 -83.5q0 -49 35 -80.5t100 -31.5q49 0 86 16t56.5 37.5t31.5 48.5t15 44t3 29zM435 392v-297q0 -20 1 -30.5t9 -21t24 -10.5q10 0 28 3v-32q-22 -4 -31 -4q-41 0 -55 19t-14 56v27h-2
q-19 -49 -70 -81.5t-121 -32.5q-172 0 -172 145q0 35 12 61.5t30 42t44.5 26.5t50 15.5t52.5 6.5q45 3 72 6t49 9t31.5 11.5t16 18.5t7.5 25.5t1 36.5q0 11 -6.5 26t-20.5 33t-44.5 30t-71.5 12q-70 0 -112 -35.5t-46 -101.5h-38q4 84 54 127t142 43q180 0 180 -134z
M193 594h-44v103h44v-103zM351 594h-44v103h44v-103z" />
    <glyph glyph-name="aring" unicode="&#xe5;" horiz-adv-x="500" 
d="M397 196v96q-11 -12 -33 -19.5t-42.5 -9.5t-56 -5t-54.5 -6q-71 -8 -106 -35.5t-35 -83.5q0 -49 35 -80.5t100 -31.5q49 0 86 16t56.5 37.5t31.5 48.5t15 44t3 29zM435 392v-297q0 -20 1 -30.5t9 -21t24 -10.5q10 0 28 3v-32q-22 -4 -31 -4q-41 0 -55 19t-14 56v27h-2
q-19 -49 -70 -81.5t-121 -32.5q-172 0 -172 145q0 35 12 61.5t30 42t44.5 26.5t50 15.5t52.5 6.5q45 3 72 6t49 9t31.5 11.5t16 18.5t7.5 25.5t1 36.5q0 11 -6.5 26t-20.5 33t-44.5 30t-71.5 12q-70 0 -112 -35.5t-46 -101.5h-38q4 84 54 127t142 43q180 0 180 -134z
M157 640q0 41 29 70t70 29t70 -29t29 -70t-29 -70t-70 -29t-70 29t-29 70zM184 640q0 -30 21 -51t51 -21t51 21t21 51t-21 51t-51 21t-51 -21t-21 -51z" />
    <glyph glyph-name="ae" unicode="&#xe6;" horiz-adv-x="889" 
d="M444 285h374q2 86 -49.5 147t-135.5 61q-88 0 -135 -59t-54 -149zM406 201v88h-2q-5 -9 -16.5 -14.5t-34 -9t-38.5 -5t-50 -4t-50 -3.5q-145 -9 -145 -122q0 -55 43 -82.5t103 -27.5q75 0 132 52.5t58 127.5zM856 252h-411q-7 -99 43 -165t145 -66q73 0 120.5 39
t58.5 111h38q-13 -85 -71.5 -134t-145.5 -49q-78 0 -133 38.5t-73 110.5h-2q-25 -69 -80.5 -109t-128.5 -40q-79 0 -131.5 36t-52.5 107q0 44 17.5 75t47 46.5t59 22.5t63.5 8q17 2 44.5 3.5t45 2.5t39 6t33.5 13t19.5 24.5t5.5 40.5q0 120 -150 120q-72 0 -115.5 -34.5
t-48.5 -105.5h-38q6 87 59.5 130t142.5 43q169 0 180 -131h2q47 131 195 131q113 0 173 -79.5t50 -194.5z" />
    <glyph glyph-name="ccedilla" unicode="&#xe7;" horiz-adv-x="519" 
d="M448 181h38q-12 -86 -67 -136.5t-135 -55.5l-39 -45l2 -2q20 9 37 9q31 0 53 -18.5t22 -54.5q0 -74 -102 -74q-50 0 -90 21l11 24q50 -18 80 -18q26 0 44.5 11t18.5 36q0 22 -16 34t-33 12q-27 0 -53 -12l-16 13l48 64q-109 6 -163.5 83.5t-54.5 189.5t63 188t173 76
q88 0 146 -43.5t66 -127.5h-38q-5 66 -53.5 102t-120.5 36q-92 0 -145 -68.5t-53 -162.5q0 -109 51 -175t147 -66q71 0 120 44.5t59 115.5z" />
    <glyph glyph-name="egrave" unicode="&#xe8;" horiz-adv-x="519" 
d="M486 252h-415q-2 -97 48 -164t141 -67q73 0 121.5 41t62.5 112h38q-15 -90 -72.5 -138t-149.5 -48q-108 0 -168.5 74t-58.5 186q-2 114 57.5 196t169.5 82q115 0 173.5 -78.5t52.5 -195.5zM71 285h377q-2 86 -52.5 147t-135.5 61q-81 0 -131.5 -62.5t-57.5 -145.5z
M317 591h-37l-134 140h51z" />
    <glyph glyph-name="eacute" unicode="&#xe9;" horiz-adv-x="519" 
d="M486 252h-415q-2 -97 48 -164t141 -67q73 0 121.5 41t62.5 112h38q-15 -90 -72.5 -138t-149.5 -48q-108 0 -168.5 74t-58.5 186q-2 114 57.5 196t169.5 82q115 0 173.5 -78.5t52.5 -195.5zM71 285h377q-2 86 -52.5 147t-135.5 61q-81 0 -131.5 -62.5t-57.5 -145.5z
M202 591l120 140h51l-134 -140h-37z" />
    <glyph glyph-name="ecircumflex" unicode="&#xea;" horiz-adv-x="519" 
d="M486 252h-415q-2 -97 48 -164t141 -67q73 0 121.5 41t62.5 112h38q-15 -90 -72.5 -138t-149.5 -48q-108 0 -168.5 74t-58.5 186q-2 114 57.5 196t169.5 82q115 0 173.5 -78.5t52.5 -195.5zM71 285h377q-2 86 -52.5 147t-135.5 61q-81 0 -131.5 -62.5t-57.5 -145.5z
M239 731h40l116 -140h-38l-98 115l-97 -115h-38z" />
    <glyph glyph-name="edieresis" unicode="&#xeb;" horiz-adv-x="519" 
d="M486 252h-415q-2 -97 48 -164t141 -67q73 0 121.5 41t62.5 112h38q-15 -90 -72.5 -138t-149.5 -48q-108 0 -168.5 74t-58.5 186q-2 114 57.5 196t169.5 82q115 0 173.5 -78.5t52.5 -195.5zM71 285h377q-2 86 -52.5 147t-135.5 61q-81 0 -131.5 -62.5t-57.5 -145.5z
M202 594h-44v103h44v-103zM360 594h-44v103h44v-103z" />
    <glyph glyph-name="igrave" unicode="&#xec;" horiz-adv-x="168" 
d="M103 0h-38v514h38v-514zM142 591h-37l-134 140h51z" />
    <glyph glyph-name="iacute" unicode="&#xed;" horiz-adv-x="168" 
d="M103 0h-38v514h38v-514zM27 591l120 140h51l-134 -140h-37z" />
    <glyph glyph-name="icircumflex" unicode="&#xee;" horiz-adv-x="168" 
d="M103 0h-38v514h38v-514zM64 731h40l116 -140h-38l-98 115l-97 -115h-38z" />
    <glyph glyph-name="idieresis" unicode="&#xef;" horiz-adv-x="168" 
d="M103 0h-38v514h38v-514zM27 594h-44v103h44v-103zM185 594h-44v103h44v-103z" />
    <glyph glyph-name="eth" unicode="&#xf0;" horiz-adv-x="537" 
d="M269 473q-93 0 -146 -65.5t-53 -158.5q0 -95 51.5 -161.5t147.5 -66.5q97 0 147 65.5t50 162.5q0 93 -52 158.5t-145 65.5zM146 582l108 60q-55 42 -103 65l28 24q60 -32 108 -71l115 64l20 -22l-109 -61q191 -153 191 -392q0 -114 -61 -187.5t-174 -73.5
q-116 0 -176.5 73t-60.5 188q0 109 63.5 183t173.5 74q102 0 163 -74l2 2q-42 99 -155 188l-112 -62z" />
    <glyph glyph-name="ntilde" unicode="&#xf1;" horiz-adv-x="519" 
d="M56 0v514h38v-110h2q19 56 70.5 89t113.5 33q43 0 76 -10.5t52 -30t31 -39t17 -47.5t6 -43.5t1 -37.5v-318h-38v325q0 168 -146 168q-85 0 -135 -59.5t-50 -155.5v-278h-38zM144 602h-29q3 36 23.5 63t53.5 27q20 0 70 -27q5 -3 17 -10t18.5 -10.5t16 -6.5t16.5 -3
q19 0 30.5 17t14.5 40h29q-5 -40 -21 -61q-22 -29 -55 -29q-22 0 -69 29q-46 28 -70 28q-36 0 -45 -57z" />
    <glyph glyph-name="ograve" unicode="&#xf2;" horiz-adv-x="537" 
d="M32 257q0 114 63.5 191.5t172.5 77.5t172.5 -77.5t63.5 -191.5t-63.5 -191.5t-172.5 -77.5t-172.5 77.5t-63.5 191.5zM70 257q0 -98 53 -167t145 -69t145 69t53 167t-53 167t-145 69t-145 -69t-53 -167zM326 591h-37l-134 140h51z" />
    <glyph glyph-name="oacute" unicode="&#xf3;" horiz-adv-x="537" 
d="M32 257q0 114 63.5 191.5t172.5 77.5t172.5 -77.5t63.5 -191.5t-63.5 -191.5t-172.5 -77.5t-172.5 77.5t-63.5 191.5zM70 257q0 -98 53 -167t145 -69t145 69t53 167t-53 167t-145 69t-145 -69t-53 -167zM211 591l120 140h51l-134 -140h-37z" />
    <glyph glyph-name="ocircumflex" unicode="&#xf4;" horiz-adv-x="537" 
d="M32 257q0 114 63.5 191.5t172.5 77.5t172.5 -77.5t63.5 -191.5t-63.5 -191.5t-172.5 -77.5t-172.5 77.5t-63.5 191.5zM70 257q0 -98 53 -167t145 -69t145 69t53 167t-53 167t-145 69t-145 -69t-53 -167zM248 731h40l116 -140h-38l-98 115l-97 -115h-38z" />
    <glyph glyph-name="otilde" unicode="&#xf5;" horiz-adv-x="537" 
d="M32 257q0 114 63.5 191.5t172.5 77.5t172.5 -77.5t63.5 -191.5t-63.5 -191.5t-172.5 -77.5t-172.5 77.5t-63.5 191.5zM70 257q0 -98 53 -167t145 -69t145 69t53 167t-53 167t-145 69t-145 -69t-53 -167zM153 602h-29q3 36 23.5 63t53.5 27q20 0 70 -27q5 -3 17 -10
t18.5 -10.5t16 -6.5t16.5 -3q19 0 30.5 17t14.5 40h29q-5 -40 -21 -61q-22 -29 -55 -29q-22 0 -69 29q-46 28 -70 28q-36 0 -45 -57z" />
    <glyph glyph-name="odieresis" unicode="&#xf6;" horiz-adv-x="537" 
d="M32 257q0 114 63.5 191.5t172.5 77.5t172.5 -77.5t63.5 -191.5t-63.5 -191.5t-172.5 -77.5t-172.5 77.5t-63.5 191.5zM70 257q0 -98 53 -167t145 -69t145 69t53 167t-53 167t-145 69t-145 -69t-53 -167zM211 594h-44v103h44v-103zM369 594h-44v103h44v-103z" />
    <glyph glyph-name="divide" unicode="&#xf7;" horiz-adv-x="600" 
d="M552 233h-504v38h504v-38zM250 452q0 22 15 37t36 15t36.5 -15t15.5 -37q0 -21 -15.5 -36t-36.5 -15t-36 15t-15 36zM250 51q0 22 15 37t36 15t36.5 -15t15.5 -37q0 -21 -15.5 -36t-36.5 -15t-36 15t-15 36z" />
    <glyph glyph-name="oslash" unicode="&#xf8;" horiz-adv-x="537" 
d="M109 112l299 316q-52 65 -140 65q-92 0 -145 -69t-53 -167q0 -85 39 -145zM428 400l-299 -316q53 -63 139 -63q92 0 145 69t53 167q0 83 -38 143zM513 490l-58 -62q49 -70 49 -171q0 -114 -63.5 -191.5t-172.5 -77.5q-101 0 -165 69l-54 -57l-24 23l57 61q-50 70 -50 173
q0 114 63.5 191.5t172.5 77.5q105 0 166 -71l55 58z" />
    <glyph glyph-name="ugrave" unicode="&#xf9;" horiz-adv-x="519" 
d="M463 514v-514h-38v110h-2q-19 -56 -70.5 -89t-113.5 -33q-43 0 -76 10.5t-52 30t-31 39t-17 47.5t-6 43.5t-1 37.5v318h38v-325q0 -168 146 -168q85 0 135 59.5t50 155.5v278h38zM317 591h-37l-134 140h51z" />
    <glyph glyph-name="uacute" unicode="&#xfa;" horiz-adv-x="519" 
d="M463 514v-514h-38v110h-2q-19 -56 -70.5 -89t-113.5 -33q-43 0 -76 10.5t-52 30t-31 39t-17 47.5t-6 43.5t-1 37.5v318h38v-325q0 -168 146 -168q85 0 135 59.5t50 155.5v278h38zM202 591l120 140h51l-134 -140h-37z" />
    <glyph glyph-name="ucircumflex" unicode="&#xfb;" horiz-adv-x="519" 
d="M463 514v-514h-38v110h-2q-19 -56 -70.5 -89t-113.5 -33q-43 0 -76 10.5t-52 30t-31 39t-17 47.5t-6 43.5t-1 37.5v318h38v-325q0 -168 146 -168q85 0 135 59.5t50 155.5v278h38zM239 731h40l116 -140h-38l-98 115l-97 -115h-38z" />
    <glyph glyph-name="udieresis" unicode="&#xfc;" horiz-adv-x="519" 
d="M463 514v-514h-38v110h-2q-19 -56 -70.5 -89t-113.5 -33q-43 0 -76 10.5t-52 30t-31 39t-17 47.5t-6 43.5t-1 37.5v318h38v-325q0 -168 146 -168q85 0 135 59.5t50 155.5v278h38zM202 594h-44v103h44v-103zM360 594h-44v103h44v-103z" />
    <glyph glyph-name="yacute" unicode="&#xfd;" horiz-adv-x="444" 
d="M209 3l-215 511h45l191 -469l176 469h43l-220 -569q-37 -88 -60 -106q-19 -15 -45 -19t-75 -4v33q41 0 64.5 7t42.5 26q16 16 53 121zM165 591l120 140h51l-134 -140h-37z" />
    <glyph glyph-name="thorn" unicode="&#xfe;" 
d="M292 21q95 0 144 66.5t49 168.5q0 98 -48.5 167.5t-144.5 69.5t-142 -68t-46 -169q0 -49 9.5 -89t30 -74t58.5 -53t90 -19zM65 -184v898h38v-318h2q15 48 63 89t124 41q113 0 172 -77t59 -193q0 -122 -58.5 -195t-172.5 -73q-67 0 -116 29.5t-71 89.5h-2v-291h-38z" />
    <glyph glyph-name="ydieresis" unicode="&#xff;" horiz-adv-x="444" 
d="M209 3l-215 511h45l191 -469l176 469h43l-220 -569q-37 -88 -60 -106q-19 -15 -45 -19t-75 -4v33q41 0 64.5 7t42.5 26q16 16 53 121zM165 594h-44v103h44v-103zM323 594h-44v103h44v-103z" />
    <glyph glyph-name="dotlessi" unicode="&#x131;" horiz-adv-x="168" 
d="M103 0h-38v514h38v-514z" />
    <glyph glyph-name="Lslash" unicode="&#x141;" horiz-adv-x="500" 
d="M63 714h44v-383l235 143v-36l-235 -142v-258h405v-38h-449v269l-85 -53v38l85 51v409z" />
    <glyph glyph-name="lslash" unicode="&#x142;" horiz-adv-x="168" 
d="M65 334v380h38v-350l65 51v-33l-65 -51v-331h-38v301l-65 -51v33z" />
    <glyph glyph-name="OE" unicode="&#x152;" horiz-adv-x="1056" 
d="M573 127v451q0 33 -57 71q-65 44 -144 44q-139 0 -218 -98t-79 -241q0 -144 74 -238.5t214 -94.5q76 0 126 27q27 13 55.5 36.5t28.5 42.5zM617 676v-286h378v-38h-378v-314h424v-38h-468v66h-2q-27 -35 -82 -59t-129 -24q-154 0 -241.5 104.5t-87.5 266.5
q0 103 38 187.5t116 137t183 52.5q58 0 113 -21.5t92 -61.5v66h466v-38h-422z" />
    <glyph glyph-name="oe" unicode="&#x153;" horiz-adv-x="889" 
d="M252 21q50 0 86 20.5t54 56t26 72.5t8 80q0 67 -15 119t-55.5 88t-102.5 36q-50 0 -87.5 -21.5t-57.5 -58.5t-29 -77.5t-9 -85.5q0 -98 45.5 -163.5t136.5 -65.5zM857 252h-393q-6 -97 40 -164t141 -67q68 0 111 39.5t59 108.5h38q-19 -85 -71.5 -133t-136.5 -48
q-81 0 -134 39.5t-66 111.5h-2q-40 -151 -192 -151q-113 0 -166 74.5t-53 187.5q0 118 56.5 197t165.5 79q74 0 124 -40t66 -112h2q41 152 199 152q110 0 164 -79t48 -195zM464 285h355q0 87 -45.5 147.5t-128.5 60.5q-87 0 -135 -61t-46 -147z" />
    <glyph glyph-name="Scaron" unicode="&#x160;" horiz-adv-x="630" 
d="M573 510h-44q-4 89 -65.5 136t-163.5 47q-33 0 -65 -7.5t-62.5 -24t-49.5 -47.5t-19 -73q0 -32 14.5 -56.5t29 -38.5t55 -27.5t57 -17.5t69.5 -15q12 -3 18 -4q45 -9 73 -16.5t64.5 -23t57 -34.5t35 -51t14.5 -73q0 -53 -23.5 -93.5t-61.5 -63t-80 -33.5t-86 -11
q-136 0 -219 61.5t-82 191.5h44q-6 -110 67.5 -162.5t189.5 -52.5q48 0 92.5 14t79.5 52.5t35 96.5q0 34 -13.5 60t-33.5 42t-53 28.5t-62 19.5t-71 15q-7 1 -11 2q-38 8 -61 13.5t-55 16t-51.5 24t-38.5 32t-28 45t-9 59.5q0 95 72 142.5t168 47.5q119 0 193.5 -54.5
t79.5 -166.5zM329 764h-40l-115 140h38l97 -115l98 115h38z" />
    <glyph glyph-name="scaron" unicode="&#x161;" horiz-adv-x="481" 
d="M36 171h38q4 -70 51.5 -110t118.5 -40q28 0 54 5t52 16t41.5 33.5t15.5 54.5q0 39 -27 63.5t-53 32.5t-82 19q-9 2 -14 3q-41 8 -66.5 16t-54 24t-42.5 42t-14 64q0 48 29.5 79t69 42t87.5 11q87 0 138.5 -40t51.5 -124h-38q-1 67 -42 99t-110 32q-60 0 -104 -24.5
t-44 -74.5q0 -27 12.5 -46.5t36 -31t48.5 -18.5t58 -14q11 -2 16 -3q45 -8 72.5 -16.5t55.5 -25t41 -43.5t13 -66q0 -40 -18.5 -69t-49 -44t-63.5 -22t-70 -7q-91 0 -148.5 48t-59.5 135zM254 591h-40l-115 140h38l97 -115l98 115h38z" />
    <glyph glyph-name="Ydieresis" unicode="&#x178;" horiz-adv-x="574" 
d="M287 336l259 378h49l-287 -415v-299h-44v299l-285 415h50zM230 767h-44v103h44v-103zM388 767h-44v103h44v-103z" />
    <glyph glyph-name="Zcaron" unicode="&#x17d;" horiz-adv-x="537" 
d="M28 676v38h501v-38l-484 -638h493v-38h-539v38l482 638h-453zM282 764h-40l-115 140h38l97 -115l98 115h38z" />
    <glyph glyph-name="zcaron" unicode="&#x17e;" horiz-adv-x="426" 
d="M55 33h362v-33h-408v36l345 445h-318v33h365v-36zM227 591h-40l-115 140h38l97 -115l98 115h38z" />
    <glyph glyph-name="florin" unicode="&#x192;" 
d="M5 -178l7 37q28 -5 50 -5q79 0 105 138l79 404h-112l7 33h111l33 169q12 58 47.5 95.5t99.5 37.5q35 0 61 -6l-8 -38q-31 6 -54 6q-84 0 -105 -100l-32 -164h120l-5 -33h-121l-80 -409q-6 -30 -13 -52t-23 -53t-45 -48.5t-69 -17.5q-24 0 -53 6z" />
    <glyph glyph-name="circumflex" unicode="&#x2c6;" horiz-adv-x="167" 
d="M63 731h40l116 -140h-38l-98 115l-97 -115h-38z" />
    <glyph glyph-name="caron" unicode="&#x2c7;" horiz-adv-x="167" 
d="M97 591h-40l-115 140h38l97 -115l98 115h38z" />
    <glyph glyph-name="breve" unicode="&#x2d8;" horiz-adv-x="167" 
d="M186 731h33q-6 -49 -44 -84.5t-87 -35.5q-56 0 -94.5 32.5t-45.5 87.5h33q12 -47 43 -69.5t63 -17.5q37 -1 65 24t34 63z" />
    <glyph glyph-name="dotaccent" unicode="&#x2d9;" horiz-adv-x="167" 
d="M105 594h-44v103h44v-103z" />
    <glyph glyph-name="ring" unicode="&#x2da;" horiz-adv-x="167" 
d="M-10 640q0 41 29 70t70 29t70 -29t29 -70t-29 -70t-70 -29t-70 29t-29 70zM17 640q0 -30 21 -51t51 -21t51 21t21 51t-21 51t-51 21t-51 -21t-21 -51z" />
    <glyph glyph-name="ogonek" unicode="&#x2db;" horiz-adv-x="167" 
d="M112 0h24q-54 -46 -72 -73.5t-18 -61.5q0 -18 15 -30.5t32 -12.5q39 0 62 40l25 -8q-11 -28 -35 -46.5t-56 -18.5q-87 0 -87 76q0 15 6.5 33t33 47.5t70.5 54.5z" />
    <glyph glyph-name="tilde" unicode="&#x2dc;" horiz-adv-x="167" 
d="M-32 602h-29q3 36 23.5 63t53.5 27q20 0 70 -27q5 -3 17 -10t18.5 -10.5t16 -6.5t16.5 -3q19 0 30.5 17t14.5 40h29q-5 -40 -21 -61q-22 -29 -55 -29q-22 0 -69 29q-46 28 -70 28q-36 0 -45 -57z" />
    <glyph glyph-name="hungarumlaut" unicode="&#x2dd;" horiz-adv-x="167" 
d="M-19 591h-37l120 140h51zM139 591h-37l120 140h51z" />
    <glyph glyph-name="endash" unicode="&#x2013;" horiz-adv-x="500" 
d="M0 253v38h500v-38h-500z" />
    <glyph glyph-name="emdash" unicode="&#x2014;" horiz-adv-x="1000" 
d="M0 253v38h1000v-38h-1000z" />
    <glyph glyph-name="quoteleft" unicode="&#x2018;" horiz-adv-x="204" 
d="M143 714v-33q-34 -15 -34 -93h21v-103h-51v103q0 102 64 126z" />
    <glyph glyph-name="quoteright" unicode="&#x2019;" horiz-adv-x="204" 
d="M125 714v-103q0 -102 -64 -126v33q34 15 34 93h-21v103h51z" />
    <glyph glyph-name="quotesinglbase" unicode="&#x201a;" horiz-adv-x="204" 
d="M125 103v-103q0 -102 -64 -126v33q34 15 34 93h-21v103h51z" />
    <glyph glyph-name="quotedblleft" unicode="&#x201c;" horiz-adv-x="315" 
d="M128 714v-33q-34 -15 -34 -93h21v-103h-51v103q0 102 64 126zM254 714v-33q-34 -15 -34 -93h21v-103h-51v103q0 102 64 126z" />
    <glyph glyph-name="quotedblright" unicode="&#x201d;" horiz-adv-x="315" 
d="M251 714v-103q0 -102 -64 -126v33q34 15 34 93h-21v103h51zM125 714v-103q0 -102 -64 -126v33q34 15 34 93h-21v103h51z" />
    <glyph glyph-name="quotedblbase" unicode="&#x201e;" horiz-adv-x="315" 
d="M251 103v-103q0 -102 -64 -126v33q34 15 34 93h-21v103h51zM125 103v-103q0 -102 -64 -126v33q34 15 34 93h-21v103h51z" />
    <glyph glyph-name="dagger" unicode="&#x2020;" 
d="M54 514h205v200h38v-200h205v-33h-205v-627h-38v627h-205v33z" />
    <glyph glyph-name="daggerdbl" unicode="&#x2021;" 
d="M259 714h38v-200h205v-33h-205v-394h205v-33h-205v-200h-38v200h-205v33h205v394h-205v33h205v200z" />
    <glyph glyph-name="bullet" unicode="&#x2022;" horiz-adv-x="500" 
d="M72 357q0 74 52 126t126 52t126.5 -52t52.5 -126t-52.5 -126.5t-126.5 -52.5t-126 52.5t-52 126.5z" />
    <glyph glyph-name="ellipsis" unicode="&#x2026;" horiz-adv-x="1000" 
d="M141 0v103h51v-103h-51zM474 0v103h51v-103h-51zM807 0v103h51v-103h-51z" />
    <glyph glyph-name="perthousand" unicode="&#x2030;" horiz-adv-x="1074" 
d="M105 -24l465 738h40l-465 -738h-40zM527 -12q-75 0 -114 46t-39 124q0 72 42.5 120t110.5 48q70 0 110.5 -47t40.5 -121q0 -76 -40 -123t-111 -47zM525 21q54 0 84.5 38.5t30.5 98.5q0 57 -31 96t-84 39q-54 0 -83.5 -37.5t-29.5 -97.5q0 -62 27.5 -99.5t85.5 -37.5z
M882 -12q-74 0 -113 46t-39 124q0 72 42 120t110 48q70 0 111 -47t41 -121q0 -76 -40.5 -123t-111.5 -47zM882 21q54 0 84 38.5t30 98.5q0 57 -30.5 96t-83.5 39q-55 0 -84.5 -37.5t-29.5 -97.5q0 -62 28 -99.5t86 -37.5zM193 702q70 0 110.5 -46.5t40.5 -120.5
q0 -76 -40 -123.5t-111 -47.5q-74 0 -113.5 46.5t-39.5 124.5q0 72 42.5 119.5t110.5 47.5zM192 669q-55 0 -84.5 -37t-29.5 -97q0 -62 28 -100t86 -38q54 -1 84 38t30 100q0 57 -30.5 95.5t-83.5 38.5z" />
    <glyph glyph-name="guilsinglleft" unicode="&#x2039;" horiz-adv-x="259" 
d="M181 121l-114 131v40l114 131v-51l-85 -100l85 -102v-49z" />
    <glyph glyph-name="guilsinglright" unicode="&#x203a;" horiz-adv-x="259" 
d="M78 121v49l85 102l-85 100v51l114 -131v-40z" />
    <glyph glyph-name="fraction" unicode="&#x2044;" horiz-adv-x="167" 
d="M-169 -24l465 738h40l-465 -738h-40z" />
    <glyph glyph-name="trademark" unicode="&#x2122;" horiz-adv-x="990" 
d="M404 714v-33h-143v-379h-32v379h-144v33h319zM542 714l152 -346l152 346h59v-412h-32v379h-3l-167 -379h-18l-167 379h-3v-379h-32v412h59z" />
    <glyph glyph-name="minus" unicode="&#x2212;" horiz-adv-x="600" 
d="M552 233h-504v38h504v-38z" />
    <glyph glyph-name="fi" unicode="&#xfb01;" horiz-adv-x="389" 
d="M0 481v33h92v106q0 51 31.5 76.5t81.5 25.5q20 0 45 -5v-33q-25 5 -45 5q-75 0 -75 -72v-103h107v-33h-107v-481h-38v481h-92zM286 611v103h38v-103h-38zM286 0v514h38v-514h-38z" />
    <glyph glyph-name="fl" unicode="&#xfb02;" horiz-adv-x="389" 
d="M0 481v33h92v106q0 51 31.5 76.5t81.5 25.5q20 0 45 -5v-33q-25 5 -45 5q-75 0 -75 -72v-103h107v-33h-107v-481h-38v481h-92zM286 0v714h38v-714h-38z" />
    <hkern u1="A" u2="&#x2019;" k="55" />
    <hkern u1="A" u2="y" k="18" />
    <hkern u1="A" u2="w" k="18" />
    <hkern u1="A" u2="v" k="18" />
    <hkern u1="A" u2="Y" k="37" />
    <hkern u1="A" u2="W" k="25" />
    <hkern u1="A" u2="V" k="31" />
    <hkern u1="A" u2="T" k="50" />
    <hkern u1="F" u2="A" k="37" />
    <hkern u1="F" u2="&#x2e;" k="116" />
    <hkern u1="F" u2="&#x2c;" k="116" />
    <hkern u1="L" u2="&#x2019;" k="79" />
    <hkern u1="L" u2="y" k="55" />
    <hkern u1="L" u2="Y" k="111" />
    <hkern u1="L" u2="W" k="74" />
    <hkern u1="L" u2="V" k="92" />
    <hkern u1="L" u2="T" k="92" />
    <hkern u1="P" u2="A" k="55" />
    <hkern u1="P" u2="&#x2e;" k="144" />
    <hkern u1="P" u2="&#x2c;" k="144" />
    <hkern u1="T" u2="y" k="92" />
    <hkern u1="T" u2="w" k="92" />
    <hkern u1="T" u2="u" k="92" />
    <hkern u1="T" u2="s" k="92" />
    <hkern u1="T" u2="r" k="92" />
    <hkern u1="T" u2="o" k="92" />
    <hkern u1="T" u2="i" k="14" />
    <hkern u1="T" u2="e" k="92" />
    <hkern u1="T" u2="c" k="92" />
    <hkern u1="T" u2="a" k="92" />
    <hkern u1="T" u2="A" k="50" />
    <hkern u1="T" u2="&#x3b;" k="87" />
    <hkern u1="T" u2="&#x3a;" k="87" />
    <hkern u1="T" u2="&#x2e;" k="111" />
    <hkern u1="T" u2="&#x2d;" k="111" />
    <hkern u1="T" u2="&#x2c;" k="111" />
    <hkern u1="V" u2="u" k="18" />
    <hkern u1="V" u2="r" k="18" />
    <hkern u1="V" u2="o" k="37" />
    <hkern u1="V" u2="e" k="37" />
    <hkern u1="V" u2="a" k="37" />
    <hkern u1="V" u2="A" k="43" />
    <hkern u1="V" u2="&#x3b;" k="37" />
    <hkern u1="V" u2="&#x3a;" k="37" />
    <hkern u1="V" u2="&#x2e;" k="92" />
    <hkern u1="V" u2="&#x2d;" k="37" />
    <hkern u1="V" u2="&#x2c;" k="92" />
    <hkern u1="W" u2="o" k="18" />
    <hkern u1="W" u2="i" k="-24" />
    <hkern u1="W" u2="e" k="18" />
    <hkern u1="W" u2="a" k="18" />
    <hkern u1="W" u2="A" k="6" />
    <hkern u1="W" u2="&#x3b;" k="18" />
    <hkern u1="W" u2="&#x3a;" k="18" />
    <hkern u1="W" u2="&#x2e;" k="55" />
    <hkern u1="W" u2="&#x2d;" k="37" />
    <hkern u1="W" u2="&#x2c;" k="55" />
    <hkern u1="Y" u2="v" k="18" />
    <hkern u1="Y" u2="u" k="37" />
    <hkern u1="Y" u2="q" k="74" />
    <hkern u1="Y" u2="p" k="55" />
    <hkern u1="Y" u2="o" k="74" />
    <hkern u1="Y" u2="e" k="74" />
    <hkern u1="Y" u2="a" k="74" />
    <hkern u1="Y" u2="A" k="55" />
    <hkern u1="Y" u2="&#x3b;" k="55" />
    <hkern u1="Y" u2="&#x3a;" k="55" />
    <hkern u1="Y" u2="&#x2e;" k="116" />
    <hkern u1="Y" u2="&#x2d;" k="98" />
    <hkern u1="Y" u2="&#x2c;" k="116" />
    <hkern u1="f" u2="&#x2019;" k="-18" />
    <hkern u1="r" u2="&#x2019;" k="-18" />
    <hkern u1="r" u2="y" k="-18" />
    <hkern u1="r" u2="v" k="-18" />
    <hkern u1="r" u2="&#x2e;" k="74" />
    <hkern u1="r" u2="&#x2d;" k="55" />
    <hkern u1="r" u2="&#x2c;" k="74" />
    <hkern u1="v" u2="&#x2e;" k="74" />
    <hkern u1="v" u2="&#x2c;" k="74" />
    <hkern u1="w" u2="&#x2e;" k="55" />
    <hkern u1="w" u2="&#x2c;" k="55" />
    <hkern u1="y" u2="&#x2e;" k="74" />
    <hkern u1="y" u2="&#x2c;" k="74" />
    <hkern u1="&#x2018;" u2="&#x2018;" k="78" />
    <hkern u1="&#x2019;" u2="&#x2019;" k="78" />
    <hkern u1="&#x2019;" u2="s" k="55" />
  </font>
</defs></svg>
