{
  "type": "service_account",
  "project_id": "soultab-298313",
  "private_key_id": "9ba9fb871e262afbf0152c6ff1defc65ac2df1cf",
  "private_key": "-----BEGIN PRIVATE KEY-----\nMIIEvAIBADANBgkqhkiG9w0BAQEFAASCBKYwggSiAgEAAoIBAQCzzr/lgGytiU4d\nu4hEoGnU7qiRkAtE/qBzEOa8jZiv0+oLkHhakYrja4Dq1YWuApSXCv6mpqbjGPLo\n2YyzLYRHPeuvuL5sXbCad1SGHceN/ZFNgi1AUAmsGnM8Y+wKXKFMwhD1kV4o1E6K\nXGv44mrmRBdAndiRRxBYdmMssVaKgi0Mk+b8zQvpBLt2E70NQot+58iscIeemu4V\nepH520h+4soc3B5dUOD8FqGs8WwcTgwO7iZCydmsaSZZAI77tKdyVzKjaOSRF18x\ncYbKFBxwBPn0CKKpDnnE6FYP1M9B/TwSTZB6F94wqt0ZryLy/Z/dKbHKapQtAIBg\nLZXT1DMhAgMBAAECggEAETMcvhpbyvnQZB21OkNR/FFcBJiPy2jD9l3OhIjS6zbN\nM4/9Q0Sa0YhOC6ijIfMTPaOKmmxkmGKhkc6Fm/olph7xNZzpcjpAE3aIuk+M8DMq\nPAzQwU8mrbTWAxfX02Hq+Am0T5k5NZShcrDGj0cxTJeE1eSDe9odYSjp8bOBALyr\nczjp41SsjOsuoxZn+I4RMjsXYLjpoi4U67mgDJMGr8VIrfzh6xCFef9PBxmvx8CI\nyQV0o24YHYJuQtkSEjzAMqkP0CyYO1o8MhA6lZ/wBVFIgodEHscU8hpiJgKHZllk\n6E4v4/4T/UxmcAJ6smvlG92L7llzbDLQisDzlhaOcQKBgQD8wrgJMeGXpdAAjR9L\n2yI0Gq3MhiG2WQ9SnQ5Wu2btOrjTttBPvB765+9fapiayUpLGstoAuLfq5iNgIr1\nSqS3DEKIHnn5TEyLBW9zZRO/wLnjGf+i0fKUEvYWa9OaYj4ex1VU1gDa/5J8Eveg\nRMnSw6pWPIcf1MoyUADqt/hfHQKBgQC2HK32XakuseHPhWUwBfsw3wIYvgrFOKcg\nZiWYOBS/xYh6p6V58DHBD2zXlEZ8vDxfAa7yUev6JFHaFwGhO9RsZoTyA2Khml19\nI3TB2e8aW1z7f9Z/8MlWo7jStyEKsg9DxcJcytgqtJyTUbxXURz+PCPvOJEZDMdS\n282ByARQ1QKBgGUa4pDTAiEt82j1CkrGigT7kv/Xu458S3PJXR32cnJ8ZchSPTtX\nzbChrA+nzQlFcVFfk3O0i9nagvg/LdZ2mDKcVdSrFDFTgt6tOuqWyPKP/gtIsAgK\nIRV4DDXlxcvgdmbLZ2e6/rabOpYk5CaYvX5wRCegqJBkBslfVS6OjmxFAoGAXwL3\nf+G9sq77sNlXwYZdV1ICNgZweBTmnPCuDIy1xpe4bMWqf8PhMWhq0M57N/i9RpQK\nQkKbaxYn3jDCmOwuF6AlHF7HxqhSvkcRU1HwfT/NcylvL7DgWmNwuf7xLjNX43P5\nw4/Q1/cC+ZlbOfMHvVyDIvvQN9GC7KfgwCUqm0ECgYAHVTDxX+u+GmGjLptAzH7h\nXsrg407OBi060YViFs/9HZjZ3+Q+vDiZ33scPgZB7A/Oq5oyaqtAaSlQBbEN48BG\nre3FlTNXOb5ynwcmOfdPRMUyqXGd/o+wJUZ36soU2zXaFTLJsOADuAiBTjPf1xUi\nhiCgRmArCiHW41VYXx2rfw==\n-----END PRIVATE KEY-----\n",
  "client_email": "developer-soultab-298313-iam-g@soultab-298313.iam.gserviceaccount.com",
  "client_id": "113296040884003578890",
  "auth_uri": "https://accounts.google.com/o/oauth2/auth",
  "token_uri": "https://oauth2.googleapis.com/token",
  "auth_provider_x509_cert_url": "https://www.googleapis.com/oauth2/v1/certs",
  "client_x509_cert_url": "https://www.googleapis.com/robot/v1/metadata/x509/developer-soultab-298313-iam-g%40soultab-298313.iam.gserviceaccount.com"
}
